diff,6.0716553,angle,0.0,pieceIndex,4,radiusPerLength,1.2224152,nowDis,0.030419895
diff,6.0902405,angle,0.04258411,pieceIndex,4,radiusPerLength,1.2224152,nowDis,0.104867786
diff,6.108429,angle,0.12901762,pieceIndex,4,radiusPerLength,1.2224152,nowDis,0.1795381
diff,6.126251,angle,0.26001942,pieceIndex,4,radiusPerLength,1.2224152,nowDis,0.2544264
diff,6.143738,angle,0.43580857,pieceIndex,4,radiusPerLength,1.2224152,nowDis,0.3295283
diff,6.160858,angle,0.65615016,pieceIndex,4,radiusPerLength,1.2224152,nowDis,0.40483955
diff,6.177643,angle,0.9204002,pieceIndex,4,radiusPerLength,1.2224152,nowDis,0.48035595
diff,6.194092,angle,1.2275494,pieceIndex,4,radiusPerLength,1.2224152,nowDis,0.5560734
diff,6.210205,angle,1.5762657,pieceIndex,4,radiusPerLength,1.2224152,nowDis,0.6319879
diff,6.2259827,angle,1.9649348,pieceIndex,4,radiusPerLength,1.2224152,nowDis,0.7080955
diff,6.2414856,angle,2.3916998,pieceIndex,4,radiusPerLength,1.2224152,nowDis,0.7843923
diff,6.256653,angle,2.8544986,pieceIndex,4,radiusPerLength,1.2224152,nowDis,0.86087453
diff,6.271515,angle,3.3510988,pieceIndex,4,radiusPerLength,1.2224152,nowDis,0.93753856
diff,6.2861023,angle,3.879132,pieceIndex,4,radiusPerLength,1.2224152,nowDis,1.0143807
diff,1.7118225,angle,4.4361258,pieceIndex,5,radiusPerLength,1.2224152,nowDis,0.035306394
diff,6.3143616,angle,5.0195312,pieceIndex,5,radiusPerLength,1.2224152,nowDis,0.11249408
diff,6.328064,angle,5.6267533,pieceIndex,5,radiusPerLength,1.2224152,nowDis,0.18984939
diff,6.341522,angle,6.2551723,pieceIndex,5,radiusPerLength,1.2224152,nowDis,0.26736897
diff,6.3546753,angle,6.902171,pieceIndex,5,radiusPerLength,1.2224152,nowDis,0.34504956
diff,6.367584,angle,7.565153,pieceIndex,5,radiusPerLength,1.2224152,nowDis,0.42288786
diff,6.380249,angle,8.241563,pieceIndex,5,radiusPerLength,1.2224152,nowDis,0.5008809
diff,6.392639,angle,8.928901,pieceIndex,5,radiusPerLength,1.2224152,nowDis,0.5790253
diff,6.404785,angle,9.624742,pieceIndex,5,radiusPerLength,1.2224152,nowDis,0.6573183
diff,6.416626,angle,10.326745,pieceIndex,5,radiusPerLength,1.2224152,nowDis,0.7357568
diff,6.428406,angle,11.032667,pieceIndex,5,radiusPerLength,1.2224152,nowDis,0.81433797
diff,6.4397583,angle,11.740372,pieceIndex,5,radiusPerLength,1.2224152,nowDis,0.89305884
diff,6.450989,angle,12.447834,pieceIndex,5,radiusPerLength,1.2224152,nowDis,0.9719166
diff,6.461975,angle,13.1531515,pieceIndex,5,radiusPerLength,1.2224152,nowDis,1.0509087
diff,1.8841553,angle,13.854546,pieceIndex,6,radiusPerLength,1.2224152,nowDis,0.073941365
diff,6.4832764,angle,14.550367,pieceIndex,6,radiusPerLength,1.2224152,nowDis,0.15319388
diff,6.4936523,angle,15.239097,pieceIndex,6,radiusPerLength,1.2224152,nowDis,0.23257269
diff,6.503723,angle,15.919345,pieceIndex,6,radiusPerLength,1.2224152,nowDis,0.31207532
diff,6.513672,angle,16.589855,pieceIndex,6,radiusPerLength,1.2224152,nowDis,0.3916993
diff,6.5233765,angle,17.249502,pieceIndex,6,radiusPerLength,1.2224152,nowDis,0.47144216
diff,6.532898,angle,17.897282,pieceIndex,6,radiusPerLength,1.2224152,nowDis,0.5513016
diff,6.5422974,angle,18.53232,pieceIndex,6,radiusPerLength,1.2224152,nowDis,0.6312751
diff,6.5513916,angle,19.153866,pieceIndex,6,radiusPerLength,1.2224152,nowDis,0.71136063
diff,6.560364,angle,19.761276,pieceIndex,6,radiusPerLength,1.2224152,nowDis,0.7915558
diff,6.569214,angle,20.354029,pieceIndex,6,radiusPerLength,1.2224152,nowDis,0.8718585
diff,6.577759,angle,20.931702,pieceIndex,6,radiusPerLength,1.2224152,nowDis,0.95226645
diff,6.5862427,angle,21.49398,pieceIndex,6,radiusPerLength,1.2224152,nowDis,1.0327777
diff,2.0059814,angle,22.040638,pieceIndex,7,radiusPerLength,1.2224152,nowDis,0.057299092
diff,6.6026,angle,22.571545,pieceIndex,7,radiusPerLength,1.2224152,nowDis,0.13801058
diff,6.6105957,angle,23.086645,pieceIndex,7,radiusPerLength,1.2224152,nowDis,0.21881922
diff,6.618347,angle,23.585968,pieceIndex,7,radiusPerLength,1.2224152,nowDis,0.29972306
diff,6.6259766,angle,24.069609,pieceIndex,7,radiusPerLength,1.2224152,nowDis,0.3807202
diff,6.633484,angle,24.537725,pieceIndex,7,radiusPerLength,1.2224152,nowDis,0.4618088
diff,6.640808,angle,24.990534,pieceIndex,7,radiusPerLength,1.2224152,nowDis,0.542987
diff,6.6480103,angle,25.428305,pieceIndex,7,radiusPerLength,1.2224152,nowDis,0.62425303
diff,6.6550293,angle,25.85135,pieceIndex,7,radiusPerLength,1.2224152,nowDis,0.7056051
diff,6.6619263,angle,26.260025,pieceIndex,7,radiusPerLength,1.2224152,nowDis,0.7870415
diff,6.668701,angle,26.654715,pieceIndex,7,radiusPerLength,1.2224152,nowDis,0.8685606
diff,6.675293,angle,27.035835,pieceIndex,7,radiusPerLength,1.2224152,nowDis,0.9501607
diff,6.6818237,angle,27.403826,pieceIndex,7,radiusPerLength,1.2224152,nowDis,1.0318401
diff,2.0996704,angle,27.759146,pieceIndex,8,radiusPerLength,2.561251,nowDis,0.06024485
diff,6.694397,angle,27.846859,pieceIndex,8,radiusPerLength,2.561251,nowDis,0.14597516
diff,6.7005005,angle,27.69278,pieceIndex,8,radiusPerLength,2.561251,nowDis,0.23178375
diff,6.706543,angle,27.322163,pieceIndex,8,radiusPerLength,2.561251,nowDis,0.31766903
diff,6.7123413,angle,26.759562,pieceIndex,8,radiusPerLength,2.561251,nowDis,0.40362948
diff,6.7181396,angle,26.028694,pieceIndex,8,radiusPerLength,2.561251,nowDis,0.4896636
diff,6.723816,angle,25.152334,pieceIndex,8,radiusPerLength,2.561251,nowDis,0.5757699
diff,6.729248,angle,24.152212,pieceIndex,8,radiusPerLength,2.561251,nowDis,0.66194695
diff,6.734741,angle,23.048944,pieceIndex,8,radiusPerLength,2.561251,nowDis,0.7481934
diff,6.73999,angle,21.861967,pieceIndex,8,radiusPerLength,2.561251,nowDis,0.83450776
diff,6.7452393,angle,20.609499,pieceIndex,8,radiusPerLength,2.561251,nowDis,0.9208886
diff,6.750305,angle,19.30851,pieceIndex,8,radiusPerLength,2.561251,nowDis,1.0073348
diff,6.8638306,angle,-3.3615766,pieceIndex,11,radiusPerLength,2.561251,nowDis,0.008092124
diff,6.866516,angle,-3.3451936,pieceIndex,11,radiusPerLength,2.561251,nowDis,0.096026555
diff,6.8692017,angle,-3.3017366,pieceIndex,11,radiusPerLength,2.561251,nowDis,0.18399517
diff,6.871826,angle,-3.234275,pieceIndex,11,radiusPerLength,2.561251,nowDis,0.2719973
diff,6.8743896,angle,-3.1457782,pieceIndex,11,radiusPerLength,2.561251,nowDis,0.36003226
diff,6.876831,angle,-3.0390992,pieceIndex,11,radiusPerLength,2.561251,nowDis,0.44809934
diff,6.8793945,angle,-2.9169638,pieceIndex,11,radiusPerLength,2.561251,nowDis,0.536198
diff,6.881714,angle,-2.7819583,pieceIndex,11,radiusPerLength,2.561251,nowDis,0.6243276
diff,6.8841553,angle,-2.6365225,pieceIndex,11,radiusPerLength,2.561251,nowDis,0.71248746
diff,6.8864746,angle,-2.4829426,pieceIndex,11,radiusPerLength,2.561251,nowDis,0.80067694
diff,6.888672,angle,-2.3233473,pieceIndex,11,radiusPerLength,2.561251,nowDis,0.88889563
diff,6.939331,angle,0.4177302,pieceIndex,14,radiusPerLength,1.2224152,nowDis,0.02835673
diff,6.9405518,angle,-0.19602722,pieceIndex,14,radiusPerLength,1.2224152,nowDis,0.11319856
diff,6.9416504,angle,-1.3573775,pieceIndex,14,radiusPerLength,1.2224152,nowDis,0.19805494
diff,6.942871,angle,-3.0020504,pieceIndex,14,radiusPerLength,1.2224152,nowDis,0.28292558
diff,6.944092,angle,-5.0679936,pieceIndex,14,radiusPerLength,1.2224152,nowDis,0.3678102
diff,6.9450684,angle,-7.495687,pieceIndex,14,radiusPerLength,1.2224152,nowDis,0.45270845
diff,6.946289,angle,-10.228407,pieceIndex,14,radiusPerLength,1.2224152,nowDis,0.5376202
diff,6.9472656,angle,-13.212436,pieceIndex,14,radiusPerLength,1.2224152,nowDis,0.62254506
diff,6.9483643,angle,-16.397226,pieceIndex,14,radiusPerLength,1.2224152,nowDis,0.70748276
diff,6.949341,angle,-19.735529,pieceIndex,14,radiusPerLength,1.2224152,nowDis,0.79243314
diff,18.069824,angle,-23.183464,pieceIndex,15,radiusPerLength,1.2224152,nowDis,0.013321492
diff,6.951416,angle,-26.70057,pieceIndex,15,radiusPerLength,1.2224152,nowDis,0.09829635
diff,6.9523926,angle,-30.249811,pieceIndex,15,radiusPerLength,1.2224152,nowDis,0.1832831
diff,6.953369,angle,-33.797565,pieceIndex,15,radiusPerLength,1.2224152,nowDis,0.26828152
diff,6.9542236,angle,-37.31356,pieceIndex,15,radiusPerLength,1.2224152,nowDis,0.3532913
diff,6.955078,angle,-40.77082,pieceIndex,15,radiusPerLength,1.2224152,nowDis,0.4383123
diff,6.9561768,angle,-44.145546,pieceIndex,15,radiusPerLength,1.2224152,nowDis,0.5233443
diff,6.956909,angle,-47.41704,pieceIndex,15,radiusPerLength,1.2224152,nowDis,0.60838693
diff,6.9577637,angle,-50.567543,pieceIndex,15,radiusPerLength,1.2224152,nowDis,0.69344014
diff,6.958618,angle,-53.58211,pieceIndex,15,radiusPerLength,1.2224152,nowDis,0.7785037
diff,6.9594727,angle,-56.44847,pieceIndex,15,radiusPerLength,1.2224152,nowDis,0.8635774
diff,18.079834,angle,-59.156845,pieceIndex,16,radiusPerLength,1.2224152,nowDis,0.084586546

diff,0.0,angle,0.0,pieceIndex,16,radiusPerLength,1.2224152,nowDis,0.084586546
diff,0.0,angle,0.0,pieceIndex,16,radiusPerLength,1.2224152,nowDis,0.084586546
diff,0.13989258,angle,0.0,pieceIndex,16,radiusPerLength,1.2224152,nowDis,0.08629794
diff,0.27722168,angle,0.0,pieceIndex,16,radiusPerLength,1.2224152,nowDis,0.08968647
diff,0.41174316,angle,0.0,pieceIndex,16,radiusPerLength,1.2224152,nowDis,0.09471861
diff,0.54333496,angle,0.0,pieceIndex,16,radiusPerLength,1.2224152,nowDis,0.1013615
diff,0.6726074,angle,0.0,pieceIndex,16,radiusPerLength,1.2224152,nowDis,0.1095829
diff,0.79907227,angle,0.0,pieceIndex,16,radiusPerLength,1.2224152,nowDis,0.11935127
diff,0.9230957,angle,0.0,pieceIndex,16,radiusPerLength,1.2224152,nowDis,0.13063565
diff,1.0446777,angle,0.0,pieceIndex,16,radiusPerLength,1.2224152,nowDis,0.1434057
diff,1.1638184,angle,0.0,pieceIndex,16,radiusPerLength,1.2224152,nowDis,0.15763175
diff,1.2803955,angle,0.0,pieceIndex,16,radiusPerLength,1.2224152,nowDis,0.17328466
diff,1.3948975,angle,0.0,pieceIndex,16,radiusPerLength,1.2224152,nowDis,0.19033588
diff,1.5070801,angle,0.0,pieceIndex,16,radiusPerLength,1.2224152,nowDis,0.20875748
diff,1.6168213,angle,0.0,pieceIndex,16,radiusPerLength,1.2224152,nowDis,0.22852203
diff,1.7244873,angle,0.0,pieceIndex,16,radiusPerLength,1.2224152,nowDis,0.24960266
diff,1.829956,angle,0.0,pieceIndex,16,radiusPerLength,1.2224152,nowDis,0.27197304
diff,1.9334717,angle,0.0,pieceIndex,16,radiusPerLength,1.2224152,nowDis,0.29560742
diff,2.03479,angle,0.0,pieceIndex,16,radiusPerLength,1.2224152,nowDis,0.3204805
diff,2.1340332,angle,0.0,pieceIndex,16,radiusPerLength,1.2224152,nowDis,0.34656745
diff,2.2313232,angle,0.0,pieceIndex,16,radiusPerLength,1.2224152,nowDis,0.3738441
diff,2.3267822,angle,0.0,pieceIndex,16,radiusPerLength,1.2224152,nowDis,0.40228656
diff,2.420166,angle,0.0,pieceIndex,16,radiusPerLength,1.2224152,nowDis,0.43187156
diff,2.5118408,angle,0.0,pieceIndex,16,radiusPerLength,1.2224152,nowDis,0.46257627
diff,2.6015625,angle,0.0,pieceIndex,16,radiusPerLength,1.2224152,nowDis,0.4943782
diff,2.6895752,angle,0.0,pieceIndex,16,radiusPerLength,1.2224152,nowDis,0.52725554
diff,2.7757568,angle,0.0,pieceIndex,16,radiusPerLength,1.2224152,nowDis,0.5611867
diff,2.8602295,angle,0.0,pieceIndex,16,radiusPerLength,1.2224152,nowDis,0.59615064
diff,2.9429932,angle,0.0,pieceIndex,16,radiusPerLength,1.2224152,nowDis,0.6321266
diff,3.02417,angle,0.0,pieceIndex,16,radiusPerLength,1.2224152,nowDis,0.6690945
diff,3.1036377,angle,0.0,pieceIndex,16,radiusPerLength,1.2224152,nowDis,0.7070344
diff,3.1816406,angle,0.0,pieceIndex,16,radiusPerLength,1.2224152,nowDis,0.74592686
diff,3.2579346,angle,0.0,pieceIndex,16,radiusPerLength,1.2224152,nowDis,0.7857529
diff,3.3328857,angle,0.0,pieceIndex,16,radiusPerLength,1.2224152,nowDis,0.82649374
diff,14.525635,angle,0.0,pieceIndex,17,radiusPerLength,1.2224152,nowDis,0.004056824
diff,3.4780273,angle,0.0,pieceIndex,17,radiusPerLength,1.2224152,nowDis,0.046572894
diff,3.548462,angle,0.0,pieceIndex,17,radiusPerLength,1.2224152,nowDis,0.089950025
diff,3.6175537,angle,0.0,pieceIndex,17,radiusPerLength,1.2224152,nowDis,0.134171
diff,3.6850586,angle,0.0,pieceIndex,17,radiusPerLength,1.2224152,nowDis,0.17921892
diff,3.7514648,angle,0.0,pieceIndex,17,radiusPerLength,1.2224152,nowDis,0.22507727
diff,3.8164062,angle,0.0,pieceIndex,17,radiusPerLength,1.2224152,nowDis,0.27172983
diff,3.880127,angle,0.0,pieceIndex,17,radiusPerLength,1.2224152,nowDis,0.31916073
diff,3.942505,angle,0.0,pieceIndex,17,radiusPerLength,1.2224152,nowDis,0.3673544
diff,4.003662,angle,0.0,pieceIndex,17,radiusPerLength,1.2224152,nowDis,0.41629553
diff,4.0635986,angle,0.0,pieceIndex,17,radiusPerLength,1.2224152,nowDis,0.4659693
diff,4.1223145,angle,0.0,pieceIndex,17,radiusPerLength,1.2224152,nowDis,0.51636094
diff,4.1798096,angle,0.0,pieceIndex,17,radiusPerLength,1.2224152,nowDis,0.5674561
diff,4.236206,angle,0.0,pieceIndex,17,radiusPerLength,1.2224152,nowDis,0.61924076
diff,4.291626,angle,0.0,pieceIndex,17,radiusPerLength,1.2224152,nowDis,0.67170113
diff,4.345703,angle,0.0,pieceIndex,17,radiusPerLength,1.2224152,nowDis,0.72482365
diff,4.3988037,angle,0.0,pieceIndex,17,radiusPerLength,1.2224152,nowDis,0.7785951
diff,4.4508057,angle,0.0,pieceIndex,17,radiusPerLength,1.2224152,nowDis,0.83300245
diff,5.3322754,angle,0.0,pieceIndex,19,radiusPerLength,1.2224152,nowDis,0.015539105
diff,5.3654785,angle,0.0,pieceIndex,19,radiusPerLength,1.2224152,nowDis,0.081128225
diff,5.3981934,angle,0.0,pieceIndex,19,radiusPerLength,1.2224152,nowDis,0.14711694
diff,5.430298,angle,0.0,pieceIndex,19,radiusPerLength,1.2224152,nowDis,0.21349727
diff,5.46167,angle,0.0,pieceIndex,19,radiusPerLength,1.2224152,nowDis,0.28026137
diff,5.4924316,angle,0.0,pieceIndex,19,radiusPerLength,1.2224152,nowDis,0.3474016
diff,5.522583,angle,0.0,pieceIndex,19,radiusPerLength,1.2224152,nowDis,0.41491035
diff,5.552124,angle,0.0,pieceIndex,19,radiusPerLength,1.2224152,nowDis,0.4827803
diff,5.5810547,angle,0.0,pieceIndex,19,radiusPerLength,1.2224152,nowDis,0.5510043
diff,5.609497,angle,0.0,pieceIndex,19,radiusPerLength,1.2224152,nowDis,0.6195752
diff,5.637207,angle,0.0,pieceIndex,19,radiusPerLength,1.2224152,nowDis,0.688486
diff,5.664551,angle,0.0,pieceIndex,19,radiusPerLength,1.2224152,nowDis,0.75773
diff,5.691162,angle,0.0,pieceIndex,19,radiusPerLength,1.2224152,nowDis,0.8273005
diff,5.717407,angle,0.0,pieceIndex,19,radiusPerLength,1.2224152,nowDis,0.8971909
diff,5.743164,angle,0.0,pieceIndex,19,radiusPerLength,1.2224152,nowDis,0.967395
diff,5.7681885,angle,0.0,pieceIndex,19,radiusPerLength,1.2224152,nowDis,1.0379063
diff,1.2043457,angle,0.0,pieceIndex,20,radiusPerLength,1.2224152,nowDis,0.052627925
diff,5.8168945,angle,0.0,pieceIndex,20,radiusPerLength,1.2224152,nowDis,0.123735555
diff,5.8406982,angle,0.0,pieceIndex,20,radiusPerLength,1.2224152,nowDis,0.19513242
diff,5.8637695,angle,0.0,pieceIndex,20,radiusPerLength,1.2224152,nowDis,0.2668127
diff,5.8865967,angle,0.0,pieceIndex,20,radiusPerLength,1.2224152,nowDis,0.33877078
diff,5.9088135,angle,0.0,pieceIndex,20,radiusPerLength,1.2224152,nowDis,0.41100106
diff,5.930664,angle,0.0,pieceIndex,20,radiusPerLength,1.2224152,nowDis,0.48349816
diff,5.9520264,angle,0.0,pieceIndex,20,radiusPerLength,1.2224152,nowDis,0.55625665
diff,5.9729004,angle,0.005739532,pieceIndex,20,radiusPerLength,1.2224152,nowDis,0.6292714
diff,5.9935303,angle,0.02295225,pieceIndex,20,radiusPerLength,1.2224152,nowDis,0.7025372
diff,6.013672,angle,0.056628283,pieceIndex,20,radiusPerLength,1.2224152,nowDis,0.7760491
diff,6.0334473,angle,0.111050196,pieceIndex,20,radiusPerLength,1.2224152,nowDis,0.8498021
diff,6.0527344,angle,0.18983029,pieceIndex,20,radiusPerLength,1.2224152,nowDis,0.92379135
diff,6.0716553,angle,0.29594895,pieceIndex,20,radiusPerLength,1.2224152,nowDis,0.9980123
diff,1.501709,angle,0.43179372,pieceIndex,21,radiusPerLength,1.2224152,nowDis,0.016369332
diff,6.1083984,angle,0.5991989,pieceIndex,21,radiusPerLength,1.2224152,nowDis,0.09103965
diff,6.1262207,angle,0.799485,pieceIndex,21,radiusPerLength,1.2224152,nowDis,0.16592795
diff,6.143799,angle,1.033499,pieceIndex,21,radiusPerLength,1.2224152,nowDis,0.24102986
diff,6.1608887,angle,1.3016529,pieceIndex,21,radiusPerLength,1.2224152,nowDis,0.3163411
diff,6.1776123,angle,1.6039629,pieceIndex,21,radiusPerLength,1.2224152,nowDis,0.3918575
diff,6.194092,angle,1.9400876,pieceIndex,21,radiusPerLength,1.2224152,nowDis,0.46757498
diff,6.210205,angle,2.3093648,pieceIndex,21,radiusPerLength,1.2224152,nowDis,0.54348946
diff,6.225952,angle,2.710848,pieceIndex,21,radiusPerLength,1.2224152,nowDis,0.6195971
diff,6.241455,angle,3.1433406,pieceIndex,21,radiusPerLength,1.2224152,nowDis,0.6958939
diff,6.256714,angle,3.60543,pieceIndex,21,radiusPerLength,1.2224152,nowDis,0.7723761
diff,6.2714844,angle,4.0955186,pieceIndex,21,radiusPerLength,1.2224152,nowDis,0.84904015
diff,6.286133,angle,4.611856,pieceIndex,21,radiusPerLength,1.2224152,nowDis,0.9258822
diff,6.300293,angle,5.152566,pieceIndex,21,radiusPerLength,1.2224152,nowDis,1.0028988
diff,1.7259521,angle,5.715674,pieceIndex,22,radiusPerLength,1.2224152,nowDis,0.023995625
diff,6.328003,angle,6.299133,pieceIndex,22,radiusPerLength,1.2224152,nowDis,0.10135093
diff,6.3415527,angle,6.9008474,pieceIndex,22,radiusPerLength,1.2224152,nowDis,0.17887053
diff,6.3546143,angle,7.5186934,pieceIndex,22,radiusPerLength,1.2224152,nowDis,0.2565511
diff,6.367676,angle,8.150541,pieceIndex,22,radiusPerLength,1.2224152,nowDis,0.33438945
diff,6.380249,angle,8.79427,pieceIndex,22,radiusPerLength,1.2224152,nowDis,0.41238242
diff,6.392578,angle,9.447787,pieceIndex,22,radiusPerLength,1.2224152,nowDis,0.49052688
diff,6.404785,angle,10.109043,pieceIndex,22,radiusPerLength,1.2224152,nowDis,0.5688198
diff,6.416626,angle,10.776043,pieceIndex,22,radiusPerLength,1.2224152,nowDis,0.64725834
diff,6.4283447,angle,11.446859,pieceIndex,22,radiusPerLength,1.2224152,nowDis,0.72583944
diff,6.4398193,angle,12.119638,pieceIndex,22,radiusPerLength,1.2224152,nowDis,0.8045603
diff,6.45105,angle,12.792616,pieceIndex,22,radiusPerLength,1.2224152,nowDis,0.88341814
diff,6.461914,angle,13.464116,pieceIndex,22,radiusPerLength,1.2224152,nowDis,0.9624102
diff,6.4727783,angle,14.132564,pieceIndex,22,radiusPerLength,1.2224152,nowDis,1.0415338
diff,1.8947754,angle,14.796483,pieceIndex,23,radiusPerLength,2.561251,nowDis,0.06777614
diff,6.4936523,angle,15.274099,pieceIndex,23,radiusPerLength,2.561251,nowDis,0.15093492
diff,6.503662,angle,15.579973,pieceIndex,23,radiusPerLength,2.561251,nowDis,0.2342234
diff,6.513672,angle,15.7286005,pieceIndex,23,radiusPerLength,2.561251,nowDis,0.317639
diff,6.5234375,angle,15.734301,pieceIndex,23,radiusPerLength,2.561251,nowDis,0.40117913
diff,6.532715,angle,15.611131,pieceIndex,23,radiusPerLength,2.561251,nowDis,0.48484138
diff,6.5424805,angle,15.372794,pieceIndex,23,radiusPerLength,2.561251,nowDis,0.5686232
diff,6.5512695,angle,15.032576,pieceIndex,23,radiusPerLength,2.561251,nowDis,0.65252227
diff,6.560547,angle,14.603272,pieceIndex,23,radiusPerLength,2.561251,nowDis,0.73653626
diff,6.569092,angle,14.097147,pieceIndex,23,radiusPerLength,2.561251,nowDis,0.8206629
diff,6.577881,angle,13.525874,pieceIndex,23,radiusPerLength,2.561251,nowDis,0.90489984
diff,6.5861816,angle,12.9005165,pieceIndex,23,radiusPerLength,2.561251,nowDis,0.9892448
diff,2.2145996,angle,12.231487,pieceIndex,24,radiusPerLength,2.561251,nowDis,0.017604992
diff,6.602539,angle,11.528535,pieceIndex,24,radiusPerLength,2.561251,nowDis,0.10215989
diff,6.6105957,angle,10.80073,pieceIndex,24,radiusPerLength,2.561251,nowDis,0.18681656
diff,6.618408,angle,10.056456,pieceIndex,24,radiusPerLength,2.561251,nowDis,0.27157298
diff,6.6259766,angle,9.303413,pieceIndex,24,radiusPerLength,2.561251,nowDis,0.35642713
diff,6.633545,angle,8.548619,pieceIndex,24,radiusPerLength,2.561251,nowDis,0.44137707
diff,6.640625,angle,7.7984204,pieceIndex,24,radiusPerLength,2.561251,nowDis,0.5264209
diff,6.6481934,angle,7.0585074,pieceIndex,24,radiusPerLength,2.561251,nowDis,0.6115567
diff,6.6550293,angle,6.3339295,pieceIndex,24,radiusPerLength,2.561251,nowDis,0.6967827
diff,6.661865,angle,5.6291184,pieceIndex,24,radiusPerLength,2.561251,nowDis,0.78209704
diff,6.668701,angle,4.9479127,pieceIndex,24,radiusPerLength,2.561251,nowDis,0.867498
diff,6.675293,angle,4.2935824,pieceIndex,24,radiusPerLength,2.561251,nowDis,0.9529838
diff,6.76001,angle,-1.4523042,pieceIndex,26,radiusPerLength,1.2224152,nowDis,0.0078653395
diff,6.7651367,angle,-1.2924781,pieceIndex,26,radiusPerLength,1.2224152,nowDis,0.09056166
diff,6.7697754,angle,-0.8530892,pieceIndex,26,radiusPerLength,1.2224152,nowDis,0.17331542
diff,6.77417,angle,-0.16399783,pieceIndex,26,radiusPerLength,1.2224152,nowDis,0.2561255
diff,6.7788086,angle,0.74576837,pieceIndex,26,radiusPerLength,1.2224152,nowDis,0.33899075
diff,6.783203,angle,1.848173,pieceIndex,26,radiusPerLength,1.2224152,nowDis,0.4219101
diff,6.7875977,angle,3.1163075,pieceIndex,26,radiusPerLength,1.2224152,nowDis,0.5048824
diff,6.791748,angle,4.5245037,pieceIndex,26,radiusPerLength,1.2224152,nowDis,0.58790666
diff,6.7961426,angle,6.048426,pieceIndex,26,radiusPerLength,1.2224152,nowDis,0.6709818
diff,6.800049,angle,7.6651444,pieceIndex,26,radiusPerLength,1.2224152,nowDis,0.7541069
diff,6.803955,angle,9.353188,pieceIndex,26,radiusPerLength,1.2224152,nowDis,0.8372808
diff,6.8081055,angle,11.092578,pieceIndex,26,radiusPerLength,1.2224152,nowDis,0.9205026
diff,6.8117676,angle,12.864856,pieceIndex,26,radiusPerLength,1.2224152,nowDis,1.0037713
diff,2.2270508,angle,14.653079,pieceIndex,27,radiusPerLength,1.2224152,nowDis,0.030995231
diff,6.819092,angle,16.441824,pieceIndex,27,radiusPerLength,1.2224152,nowDis,0.114355095
diff,6.822998,angle,18.21716,pieceIndex,27,radiusPerLength,1.2224152,nowDis,0.19775912
diff,6.826416,angle,19.966621,pieceIndex,27,radiusPerLength,1.2224152,nowDis,0.28120646
diff,6.829834,angle,21.679167,pieceIndex,27,radiusPerLength,1.2224152,nowDis,0.36469623
diff,6.833496,angle,23.345139,pieceIndex,27,radiusPerLength,1.2224152,nowDis,0.44822758
diff,6.836426,angle,24.9562,pieceIndex,27,radiusPerLength,1.2224152,nowDis,0.5317997
diff,6.840088,angle,26.505283,pieceIndex,27,radiusPerLength,1.2224152,nowDis,0.61541176
diff,6.8430176,angle,27.986517,pieceIndex,27,radiusPerLength,1.2224152,nowDis,0.69906294
diff,6.8461914,angle,29.395164,pieceIndex,27,radiusPerLength,1.2224152,nowDis,0.7827525
diff,6.849365,angle,30.727552,pieceIndex,27,radiusPerLength,1.2224152,nowDis,0.86647964
diff,6.852295,angle,31.980991,pieceIndex,27,radiusPerLength,1.2224152,nowDis,0.9502436
diff,6.8554688,angle,33.15371,pieceIndex,27,radiusPerLength,1.2224152,nowDis,1.0340438
diff,6.881836,angle,29.937551,pieceIndex,29,radiusPerLength,1.2224152,nowDis,0.059889883
diff,6.884033,angle,27.880484,pieceIndex,29,radiusPerLength,1.2224152,nowDis,0.14404246
diff,6.8864746,angle,25.205196,pieceIndex,29,radiusPerLength,1.2224152,nowDis,0.22822337
diff,6.888672,angle,21.99537,pieceIndex,29,radiusPerLength,1.2224152,nowDis,0.31243205
diff,6.890869,angle,18.330963,pieceIndex,29,radiusPerLength,1.2224152,nowDis,0.39666796
diff,6.8930664,angle,14.287886,pieceIndex,29,radiusPerLength,1.2224152,nowDis,0.4809305
diff,6.8952637,angle,9.937767,pieceIndex,29,radiusPerLength,1.2224152,nowDis,0.56521916
diff,6.897461,angle,5.3477607,pieceIndex,29,radiusPerLength,1.2224152,nowDis,0.64953345
diff,6.899414,angle,0.5804158,pieceIndex,29,radiusPerLength,1.2224152,nowDis,0.73387283
diff,6.901367,angle,-4.3064,pieceIndex,29,radiusPerLength,1.2224152,nowDis,0.8182368
diff,18.022705,angle,-9.259532,pieceIndex,30,radiusPerLength,1.2224152,nowDis,0.038550507
diff,6.9052734,angle,-14.230526,pieceIndex,30,radiusPerLength,1.2224152,nowDis,0.12296221
diff,6.9072266,angle,-19.17558,pieceIndex,30,radiusPerLength,1.2224152,nowDis,0.20739706
diff,6.9091797,angle,-24.055447,pieceIndex,30,radiusPerLength,1.2224152,nowDis,0.2918546
diff,6.9108887,angle,-28.835339,pieceIndex,30,radiusPerLength,1.2224152,nowDis,0.37633434
diff,6.9125977,angle,-33.484764,pieceIndex,30,radiusPerLength,1.2224152,nowDis,0.46083587
diff,6.914551,angle,-37.977375,pieceIndex,30,radiusPerLength,1.2224152,nowDis,0.5453588
diff,6.9160156,angle,-42.29077,pieceIndex,30,radiusPerLength,1.2224152,nowDis,0.6299026
diff,6.9179688,angle,-46.40632,pieceIndex,30,radiusPerLength,1.2224152,nowDis,0.71446687
diff,6.9194336,angle,-50.308914,pieceIndex,30,radiusPerLength,1.2224152,nowDis,0.79905134
diff,18.040283,angle,-53.986786,pieceIndex,31,radiusPerLength,1.2224152,nowDis,0.019581068
diff,6.9226074,angle,-56.484013,pieceIndex,31,radiusPerLength,1.2224152,nowDis,0.104204476
diff,6.9243164,angle,-57.89631,pieceIndex,31,radiusPerLength,1.2224152,nowDis,0.1888468
diff,6.925537,angle,-58.31922,pieceIndex,31,radiusPerLength,1.2224152,nowDis,0.27350765
diff,6.927246,angle,-57.84731,pieceIndex,31,radiusPerLength,1.2224152,nowDis,0.3581867
diff,6.928711,angle,-56.573437,pieceIndex,31,radiusPerLength,1.2224152,nowDis,0.4428835
diff,6.930176,angle,-54.588142,pieceIndex,31,radiusPerLength,1.2224152,nowDis,0.5275978
diff,6.9313965,angle,-51.979095,pieceIndex,31,radiusPerLength,1.2224152,nowDis,0.6123291
diff,6.9328613,angle,-48.830616,pieceIndex,31,radiusPerLength,1.2224152,nowDis,0.6970772
diff,6.934082,angle,-45.2233,pieceIndex,31,radiusPerLength,1.2224152,nowDis,0.78184175
diff,6.935547,angle,-41.233677,pieceIndex,31,radiusPerLength,1.2224152,nowDis,0.86662245
diff,6.9367676,angle,-36.93396,pieceIndex,31,radiusPerLength,1.2224152,nowDis,0.9514188
diff,6.9379883,angle,-32.391857,pieceIndex,31,radiusPerLength,1.2224152,nowDis,1.0362307
diff,2.35083,angle,-27.670433,pieceIndex,32,radiusPerLength,1.2224152,nowDis,0.06496675
diff,6.9404297,angle,-22.828026,pieceIndex,32,radiusPerLength,1.2224152,nowDis,0.14980859
diff,6.9416504,angle,-17.918215,pieceIndex,32,radiusPerLength,1.2224152,nowDis,0.23466498
diff,6.942871,angle,-12.989833,pieceIndex,32,radiusPerLength,1.2224152,nowDis,0.31953558
diff,6.944092,angle,-8.087011,pieceIndex,32,radiusPerLength,1.2224152,nowDis,0.4044202
diff,6.9450684,angle,-3.2492735,pieceIndex,32,radiusPerLength,1.2224152,nowDis,0.48931852
diff,6.946289,angle,1.4883523,pieceIndex,32,radiusPerLength,1.2224152,nowDis,0.5742302
diff,6.9472656,angle,6.0951877,pieceIndex,32,radiusPerLength,1.2224152,nowDis,0.6591551
diff,6.948242,angle,10.544737,pieceIndex,32,radiusPerLength,1.2224152,nowDis,0.74409276
diff,6.949463,angle,14.814497,pieceIndex,32,radiusPerLength,1.2224152,nowDis,0.82904315
diff,6.9504395,angle,18.885761,pieceIndex,32,radiusPerLength,1.2224152,nowDis,0.9140058
diff,6.951416,angle,22.743395,pieceIndex,32,radiusPerLength,1.2224152,nowDis,0.9989807
diff,2.3637695,angle,26.375618,pieceIndex,33,radiusPerLength,1.2224152,nowDis,0.0278766
diff,6.953369,angle,29.773771,pieceIndex,33,radiusPerLength,1.2224152,nowDis,0.112875
diff,6.9541016,angle,32.93208,pieceIndex,33,radiusPerLength,1.2224152,nowDis,0.1978848
diff,6.955078,angle,35.847412,pieceIndex,33,radiusPerLength,1.2224152,nowDis,0.2829058
diff,6.956299,angle,38.51905,pieceIndex,33,radiusPerLength,1.2224152,nowDis,0.36793774
diff,6.956787,angle,40.948463,pieceIndex,33,radiusPerLength,1.2224152,nowDis,0.45298046
diff,6.9577637,angle,43.13905,pieceIndex,33,radiusPerLength,1.2224152,nowDis,0.53803366
diff,6.95874,angle,45.095947,pieceIndex,33,radiusPerLength,1.2224152,nowDis,0.6230972
diff,6.9594727,angle,46.8258,pieceIndex,33,radiusPerLength,1.2224152,nowDis,0.70817083
diff,6.960205,angle,48.33655,pieceIndex,33,radiusPerLength,1.2224152,nowDis,0.7932544
diff,6.9611816,angle,49.637245,pieceIndex,33,radiusPerLength,1.2224152,nowDis,0.8783477
diff,6.961914,angle,50.737843,pieceIndex,33,radiusPerLength,1.2224152,nowDis,0.9634505
diff,6.9624023,angle,51.64904,pieceIndex,33,radiusPerLength,1.2224152,nowDis,1.0485625
diff,2.3747559,angle,52.382114,pieceIndex,34,radiusPerLength,1.2224152,nowDis,0.07759293
diff,6.9641113,angle,52.948742,pieceIndex,34,radiusPerLength,1.2224152,nowDis,0.16272314
diff,6.9648438,angle,53.360886,pieceIndex,34,radiusPerLength,1.2224152,nowDis,0.24786213
diff,6.965576,angle,53.630653,pieceIndex,34,radiusPerLength,1.2224152,nowDis,0.33300972
diff,6.9663086,angle,53.770164,pieceIndex,34,radiusPerLength,1.2224152,nowDis,0.41816574
diff,6.966797,angle,53.791466,pieceIndex,34,radiusPerLength,1.2224152,nowDis,0.50333
diff,6.9675293,angle,53.70642,pieceIndex,34,radiusPerLength,1.2224152,nowDis,0.58850235
diff,6.9682617,angle,53.52663,pieceIndex,34,radiusPerLength,1.2224152,nowDis,0.6736827
diff,6.96875,angle,53.26335,pieceIndex,34,radiusPerLength,1.2224152,nowDis,0.7588707
diff,6.9694824,angle,52.92744,pieceIndex,34,radiusPerLength,1.2224152,nowDis,0.84406644
diff,6.9699707,angle,52.5293,pieceIndex,34,radiusPerLength,1.2224152,nowDis,0.9292696
diff,6.970703,angle,52.078827,pieceIndex,34,radiusPerLength,1.2224152,nowDis,1.0144801


diff,6.9978027,angle,-0.067839906,pieceIndex,4,radiusPerLength,1.2224152,nowDis,0.015487289
diff,6.998047,angle,0.31428984,pieceIndex,4,radiusPerLength,1.2224152,nowDis,0.10102988
diff,6.9978027,angle,1.0322589,pieceIndex,4,radiusPerLength,1.2224152,nowDis,0.186573
diff,6.9978027,angle,2.0462205,pieceIndex,4,radiusPerLength,1.2224152,nowDis,0.27211663
diff,6.998047,angle,3.3177235,pieceIndex,4,radiusPerLength,1.2224152,nowDis,0.3576608
diff,6.998047,angle,4.809908,pieceIndex,4,radiusPerLength,1.2224152,nowDis,0.44320542
diff,6.998047,angle,6.487669,pieceIndex,4,radiusPerLength,1.2224152,nowDis,0.52875054
diff,6.998047,angle,8.317789,pieceIndex,4,radiusPerLength,1.2224152,nowDis,0.6142962
diff,6.998047,angle,10.269039,pieceIndex,4,radiusPerLength,1.2224152,nowDis,0.6998423
diff,6.998291,angle,12.312251,pieceIndex,4,radiusPerLength,1.2224152,nowDis,0.78538877
diff,6.998047,angle,14.420372,pieceIndex,4,radiusPerLength,1.2224152,nowDis,0.87093586
diff,6.998291,angle,16.568483,pieceIndex,4,radiusPerLength,1.2224152,nowDis,0.95648324
diff,6.998291,angle,18.733809,pieceIndex,4,radiusPerLength,1.2224152,nowDis,1.0420312
diff,2.409668,angle,20.895699,pieceIndex,5,radiusPerLength,1.2224152,nowDis,0.07148851
diff,6.998291,angle,23.035599,pieceIndex,5,radiusPerLength,1.2224152,nowDis,0.15703721
diff,6.998291,angle,25.137,pieceIndex,5,radiusPerLength,1.2224152,nowDis,0.24258633
diff,6.998535,angle,27.185383,pieceIndex,5,radiusPerLength,1.2224152,nowDis,0.32813585
diff,6.998291,angle,29.168142,pieceIndex,5,radiusPerLength,1.2224152,nowDis,0.4136857
diff,6.998535,angle,31.074507,pieceIndex,5,radiusPerLength,1.2224152,nowDis,0.49923605
diff,6.998535,angle,32.89545,pieceIndex,5,radiusPerLength,1.2224152,nowDis,0.58478665
diff,6.998535,angle,34.623596,pieceIndex,5,radiusPerLength,1.2224152,nowDis,0.67033774
diff,6.998535,angle,36.25312,pieceIndex,5,radiusPerLength,1.2224152,nowDis,0.7558891
diff,6.998535,angle,37.779636,pieceIndex,5,radiusPerLength,1.2224152,nowDis,0.8414409
diff,6.9987793,angle,39.2001,pieceIndex,5,radiusPerLength,1.2224152,nowDis,0.92699295
diff,6.998535,angle,40.512707,pieceIndex,5,radiusPerLength,1.2224152,nowDis,1.0125453
diff,2.4104004,angle,41.716763,pieceIndex,6,radiusPerLength,1.2224152,nowDis,0.042007245
diff,6.998535,angle,42.812603,pieceIndex,6,radiusPerLength,1.2224152,nowDis,0.12756033
diff,6.9987793,angle,43.801468,pieceIndex,6,radiusPerLength,1.2224152,nowDis,0.21311374
diff,6.9987793,angle,44.685417,pieceIndex,6,radiusPerLength,1.2224152,nowDis,0.29866746
diff,6.9987793,angle,45.467216,pieceIndex,6,radiusPerLength,1.2224152,nowDis,0.3842215
diff,6.9987793,angle,46.150253,pieceIndex,6,radiusPerLength,1.2224152,nowDis,0.46977583
diff,6.9990234,angle,46.73843,pieceIndex,6,radiusPerLength,1.2224152,nowDis,0.55533046
diff,6.998535,angle,47.236103,pieceIndex,6,radiusPerLength,1.2224152,nowDis,0.64088535
diff,6.9990234,angle,47.647972,pieceIndex,6,radiusPerLength,1.2224152,nowDis,0.72644055
diff,6.9990234,angle,47.979023,pieceIndex,6,radiusPerLength,1.2224152,nowDis,0.81199604
diff,6.998535,angle,48.23445,pieceIndex,6,radiusPerLength,1.2224152,nowDis,0.8975518
diff,6.9990234,angle,48.41959,pieceIndex,6,radiusPerLength,1.2224152,nowDis,0.98310775
diff,2.4101562,angle,48.53986,pieceIndex,7,radiusPerLength,1.2224152,nowDis,0.012573155
diff,6.9990234,angle,48.600697,pieceIndex,7,radiusPerLength,1.2224152,nowDis,0.09812968
diff,6.9990234,angle,48.607525,pieceIndex,7,radiusPerLength,1.2224152,nowDis,0.18368647
diff,6.9990234,angle,48.56569,pieceIndex,7,radiusPerLength,1.2224152,nowDis,0.26924348
diff,6.9990234,angle,48.48043,pieceIndex,7,radiusPerLength,1.2224152,nowDis,0.35480076
diff,6.9990234,angle,48.356842,pieceIndex,7,radiusPerLength,1.2224152,nowDis,0.44035825
diff,6.9990234,angle,48.19985,pieceIndex,7,radiusPerLength,1.2224152,nowDis,0.525916
diff,6.9995117,angle,48.014164,pieceIndex,7,radiusPerLength,1.2224152,nowDis,0.6114739
diff,6.9990234,angle,47.804295,pieceIndex,7,radiusPerLength,1.2224152,nowDis,0.69703215
diff,6.9990234,angle,47.5745,pieceIndex,7,radiusPerLength,1.2224152,nowDis,0.7825905
diff,6.9990234,angle,47.32879,pieceIndex,7,radiusPerLength,1.2224152,nowDis,0.86814916
diff,6.9995117,angle,47.070908,pieceIndex,7,radiusPerLength,1.2224152,nowDis,0.95370793
diff,6.9990234,angle,46.804333,pieceIndex,7,radiusPerLength,1.2224152,nowDis,1.039267
diff,2.4106445,angle,46.53228,pieceIndex,8,radiusPerLength,2.561251,nowDis,0.072008416
diff,6.9990234,angle,45.880318,pieceIndex,8,radiusPerLength,2.561251,nowDis,0.1616421
diff,6.9995117,angle,44.892147,pieceIndex,8,radiusPerLength,2.561251,nowDis,0.251276
diff,6.9990234,angle,43.61003,pieceIndex,8,radiusPerLength,2.561251,nowDis,0.34091008
diff,6.9990234,angle,42.074577,pieceIndex,8,radiusPerLength,2.561251,nowDis,0.43054435
diff,6.9995117,angle,40.32456,pieceIndex,8,radiusPerLength,2.561251,nowDis,0.5201788
diff,6.9995117,angle,38.396736,pieceIndex,8,radiusPerLength,2.561251,nowDis,0.60981345
diff,6.9990234,angle,36.32576,pieceIndex,8,radiusPerLength,2.561251,nowDis,0.6994483
diff,6.9995117,angle,34.144062,pieceIndex,8,radiusPerLength,2.561251,nowDis,0.7890833
diff,6.9990234,angle,31.881804,pieceIndex,8,radiusPerLength,2.561251,nowDis,0.8787185
diff,6.9995117,angle,29.56683,pieceIndex,8,radiusPerLength,2.561251,nowDis,0.96835387
diff,6.9995117,angle,-5.855532,pieceIndex,11,radiusPerLength,2.561251,nowDis,0.04013798
diff,6.9995117,angle,-5.7344017,pieceIndex,11,radiusPerLength,2.561251,nowDis,0.12977725
diff,7.0,angle,-5.5752106,pieceIndex,11,radiusPerLength,2.561251,nowDis,0.21941663
diff,6.9995117,angle,-5.383158,pieceIndex,11,radiusPerLength,2.561251,nowDis,0.30905607
diff,6.9995117,angle,-5.1632104,pieceIndex,11,radiusPerLength,2.561251,nowDis,0.39869562
diff,6.9995117,angle,-4.9200816,pieceIndex,11,radiusPerLength,2.561251,nowDis,0.48833528
diff,7.0,angle,-4.658217,pieceIndex,11,radiusPerLength,2.561251,nowDis,0.577975
diff,6.9995117,angle,-4.381781,pieceIndex,11,radiusPerLength,2.561251,nowDis,0.66761476
diff,7.0,angle,-4.09465,pieceIndex,11,radiusPerLength,2.561251,nowDis,0.75725466
diff,6.9995117,angle,-3.8004053,pieceIndex,11,radiusPerLength,2.561251,nowDis,0.84689456
diff,6.9995117,angle,-3.502333,pieceIndex,11,radiusPerLength,2.561251,nowDis,0.93653464
diff,6.9995117,angle,0.7472816,pieceIndex,14,radiusPerLength,1.2224152,nowDis,0.018480983
diff,7.0,angle,0.09335294,pieceIndex,14,radiusPerLength,1.2224152,nowDis,0.10404809
diff,7.0,angle,-1.1351058,pieceIndex,14,radiusPerLength,1.2224152,nowDis,0.18961523
diff,6.9995117,angle,-2.8698943,pieceIndex,14,radiusPerLength,1.2224152,nowDis,0.27518243
diff,7.0,angle,-5.0452023,pieceIndex,14,radiusPerLength,1.2224152,nowDis,0.36074963
diff,7.0,angle,-7.597945,pieceIndex,14,radiusPerLength,1.2224152,nowDis,0.4463169
diff,6.9995117,angle,-10.468046,pieceIndex,14,radiusPerLength,1.2224152,nowDis,0.5318842
diff,7.0,angle,-13.598656,pieceIndex,14,radiusPerLength,1.2224152,nowDis,0.61745155
diff,7.0,angle,-16.936335,pieceIndex,14,radiusPerLength,1.2224152,nowDis,0.7030189
diff,7.0,angle,-20.431171,pieceIndex,14,radiusPerLength,1.2224152,nowDis,0.7885863
diff,18.11914,angle,-24.036873,pieceIndex,15,radiusPerLength,1.2224152,nowDis,0.010079364
diff,6.9995117,angle,-27.710804,pieceIndex,15,radiusPerLength,1.2224152,nowDis,0.095646836
diff,7.0,angle,-31.413998,pieceIndex,15,radiusPerLength,1.2224152,nowDis,0.18121433
diff,7.0,angle,-35.111126,pieceIndex,15,radiusPerLength,1.2224152,nowDis,0.26678187
diff,7.0,angle,-38.770447,pieceIndex,15,radiusPerLength,1.2224152,nowDis,0.3523494
diff,6.9995117,angle,-42.363728,pieceIndex,15,radiusPerLength,1.2224152,nowDis,0.437917
Received: turboAvailable
diff,6.9995117,angle,-42.363728,pieceIndex,15,radiusPerLength,1.2224152,nowDis,0.437917
diff,7.0,angle,-45.866127,pieceIndex,15,radiusPerLength,1.2224152,nowDis,0.52348465
diff,7.0,angle,-49.25609,pieceIndex,15,radiusPerLength,1.2224152,nowDis,0.6090523
diff,7.0,angle,-52.5152,pieceIndex,15,radiusPerLength,1.2224152,nowDis,0.69461995
diff,6.9995117,angle,-55.62803,pieceIndex,15,radiusPerLength,1.2224152,nowDis,0.78018767
diff,18.120117,angle,-58.581966,pieceIndex,16,radiusPerLength,1.2224152,nowDis,0.0016810147

diff,0.0,angle,0.0,pieceIndex,16,radiusPerLength,1.2224152,nowDis,0.0016810147
diff,0.0,angle,0.0,pieceIndex,16,radiusPerLength,1.2224152,nowDis,0.0016810147
diff,0.13964844,angle,0.0,pieceIndex,16,radiusPerLength,1.2224152,nowDis,0.003392396
diff,0.27734375,angle,0.0,pieceIndex,16,radiusPerLength,1.2224152,nowDis,0.006780931
diff,0.4116211,angle,0.0,pieceIndex,16,radiusPerLength,1.2224152,nowDis,0.011813076
diff,0.54345703,angle,0.0,pieceIndex,16,radiusPerLength,1.2224152,nowDis,0.01845596
diff,0.6723633,angle,0.0,pieceIndex,16,radiusPerLength,1.2224152,nowDis,0.026677368
diff,0.7993164,angle,0.0,pieceIndex,16,radiusPerLength,1.2224152,nowDis,0.036445726
diff,0.92333984,angle,0.0,pieceIndex,16,radiusPerLength,1.2224152,nowDis,0.0477301
diff,1.0444336,angle,0.0,pieceIndex,16,radiusPerLength,1.2224152,nowDis,0.06050017
diff,1.1635742,angle,0.0,pieceIndex,16,radiusPerLength,1.2224152,nowDis,0.074726224
diff,1.2807617,angle,0.0,pieceIndex,16,radiusPerLength,1.2224152,nowDis,0.09037913
diff,1.3950195,angle,0.0,pieceIndex,16,radiusPerLength,1.2224152,nowDis,0.10743036
diff,1.5068359,angle,0.0,pieceIndex,16,radiusPerLength,1.2224152,nowDis,0.12585194
diff,1.6166992,angle,0.0,pieceIndex,16,radiusPerLength,1.2224152,nowDis,0.14561649
diff,1.7246094,angle,0.0,pieceIndex,16,radiusPerLength,1.2224152,nowDis,0.16669711
diff,1.8300781,angle,0.0,pieceIndex,16,radiusPerLength,1.2224152,nowDis,0.1890675
diff,1.9331055,angle,0.0,pieceIndex,16,radiusPerLength,1.2224152,nowDis,0.21270187
diff,2.0351562,angle,0.0,pieceIndex,16,radiusPerLength,1.2224152,nowDis,0.23757493
diff,2.133789,angle,0.0,pieceIndex,16,radiusPerLength,1.2224152,nowDis,0.26366192
diff,2.2314453,angle,0.0,pieceIndex,16,radiusPerLength,1.2224152,nowDis,0.29093856
diff,2.3266602,angle,0.0,pieceIndex,16,radiusPerLength,1.2224152,nowDis,0.31938103
diff,2.4204102,angle,0.0,pieceIndex,16,radiusPerLength,1.2224152,nowDis,0.34896603
diff,2.5117188,angle,0.0,pieceIndex,16,radiusPerLength,1.2224152,nowDis,0.3796707
diff,2.6015625,angle,0.0,pieceIndex,16,radiusPerLength,1.2224152,nowDis,0.41147268
diff,2.6894531,angle,0.0,pieceIndex,16,radiusPerLength,1.2224152,nowDis,0.44435
diff,2.775879,angle,0.0,pieceIndex,16,radiusPerLength,1.2224152,nowDis,0.47828117
diff,2.8603516,angle,0.0,pieceIndex,16,radiusPerLength,1.2224152,nowDis,0.51324505
diff,2.942871,angle,0.0,pieceIndex,16,radiusPerLength,1.2224152,nowDis,0.54922104
diff,3.0239258,angle,0.0,pieceIndex,16,radiusPerLength,1.2224152,nowDis,0.5861889
diff,3.104004,angle,0.0,pieceIndex,16,radiusPerLength,1.2224152,nowDis,0.6241288
diff,3.1816406,angle,0.0,pieceIndex,16,radiusPerLength,1.2224152,nowDis,0.6630213
diff,3.2578125,angle,0.0,pieceIndex,16,radiusPerLength,1.2224152,nowDis,0.70284736
diff,3.3330078,angle,0.0,pieceIndex,16,radiusPerLength,1.2224152,nowDis,0.7435882
diff,3.4057617,angle,0.0,pieceIndex,16,radiusPerLength,1.2224152,nowDis,0.7852257
diff,3.4785156,angle,0.0,pieceIndex,16,radiusPerLength,1.2224152,nowDis,0.8277417
diff,14.66748,angle,0.0,pieceIndex,17,radiusPerLength,1.2224152,nowDis,0.0070444853
diff,3.6176758,angle,0.0,pieceIndex,17,radiusPerLength,1.2224152,nowDis,0.051265456
diff,3.6850586,angle,0.0,pieceIndex,17,radiusPerLength,1.2224152,nowDis,0.09631338
diff,3.7514648,angle,0.0,pieceIndex,17,radiusPerLength,1.2224152,nowDis,0.14217174
diff,3.8164062,angle,0.0,pieceIndex,17,radiusPerLength,1.2224152,nowDis,0.1888243
diff,3.880371,angle,0.0,pieceIndex,17,radiusPerLength,1.2224152,nowDis,0.2362552
diff,3.9423828,angle,0.0,pieceIndex,17,radiusPerLength,1.2224152,nowDis,0.28444886
diff,4.003418,angle,0.0,pieceIndex,17,radiusPerLength,1.2224152,nowDis,0.33339003
diff,4.0634766,angle,0.0,pieceIndex,17,radiusPerLength,1.2224152,nowDis,0.38306373
diff,4.1225586,angle,0.0,pieceIndex,17,radiusPerLength,1.2224152,nowDis,0.4334554
diff,4.1796875,angle,0.0,pieceIndex,17,radiusPerLength,1.2224152,nowDis,0.4845506
diff,4.236328,angle,0.0,pieceIndex,17,radiusPerLength,1.2224152,nowDis,0.53633523
diff,4.291504,angle,0.0,pieceIndex,17,radiusPerLength,1.2224152,nowDis,0.5887956
diff,4.345703,angle,0.0,pieceIndex,17,radiusPerLength,1.2224152,nowDis,0.64191806
diff,4.398926,angle,0.0,pieceIndex,17,radiusPerLength,1.2224152,nowDis,0.69568956
diff,4.4506836,angle,0.0,pieceIndex,17,radiusPerLength,1.2224152,nowDis,0.7500969
diff,4.501953,angle,0.0,pieceIndex,17,radiusPerLength,1.2224152,nowDis,0.8051276
diff,4.551758,angle,0.0,pieceIndex,17,radiusPerLength,1.2224152,nowDis,0.860769
diff,5.3984375,angle,0.0,pieceIndex,19,radiusPerLength,1.2224152,nowDis,0.064211406
diff,5.430176,angle,0.0,pieceIndex,19,radiusPerLength,1.2224152,nowDis,0.13059172
diff,5.461426,angle,0.0,pieceIndex,19,radiusPerLength,1.2224152,nowDis,0.19735584
diff,5.492676,angle,0.0,pieceIndex,19,radiusPerLength,1.2224152,nowDis,0.26449603
diff,5.522461,angle,0.0,pieceIndex,19,radiusPerLength,1.2224152,nowDis,0.33200482
diff,5.552246,angle,0.0,pieceIndex,19,radiusPerLength,1.2224152,nowDis,0.3998748
diff,5.5810547,angle,0.0,pieceIndex,19,radiusPerLength,1.2224152,nowDis,0.4680988
diff,5.609375,angle,0.0,pieceIndex,19,radiusPerLength,1.2224152,nowDis,0.5366696
diff,5.637207,angle,0.0,pieceIndex,19,radiusPerLength,1.2224152,nowDis,0.60558045
diff,5.664551,angle,0.0,pieceIndex,19,radiusPerLength,1.2224152,nowDis,0.6748244
diff,5.6914062,angle,0.0,pieceIndex,19,radiusPerLength,1.2224152,nowDis,0.74439496
diff,5.717285,angle,0.0,pieceIndex,19,radiusPerLength,1.2224152,nowDis,0.81428546
diff,5.743164,angle,0.0,pieceIndex,19,radiusPerLength,1.2224152,nowDis,0.8844895
diff,5.7680664,angle,0.0,pieceIndex,19,radiusPerLength,1.2224152,nowDis,0.95500076
diff,5.7929688,angle,0.0,pieceIndex,19,radiusPerLength,1.2224152,nowDis,1.0258133
diff,1.2285156,angle,0.0,pieceIndex,20,radiusPerLength,1.2224152,nowDis,0.04083002
diff,5.840332,angle,0.0,pieceIndex,20,radiusPerLength,1.2224152,nowDis,0.112226866
diff,5.8637695,angle,0.0,pieceIndex,20,radiusPerLength,1.2224152,nowDis,0.18390717
diff,5.8867188,angle,0.0,pieceIndex,20,radiusPerLength,1.2224152,nowDis,0.25586525
diff,5.9086914,angle,0.0,pieceIndex,20,radiusPerLength,1.2224152,nowDis,0.32809553
diff,5.930664,angle,0.0,pieceIndex,20,radiusPerLength,1.2224152,nowDis,0.4005926
diff,5.9521484,angle,0.0,pieceIndex,20,radiusPerLength,1.2224152,nowDis,0.47335112
diff,5.9731445,angle,0.005739532,pieceIndex,20,radiusPerLength,1.2224152,nowDis,0.5463658
diff,5.993164,angle,0.02295225,pieceIndex,20,radiusPerLength,1.2224152,nowDis,0.61963165
diff,6.013672,angle,0.056628283,pieceIndex,20,radiusPerLength,1.2224152,nowDis,0.6931435
diff,6.0336914,angle,0.111050196,pieceIndex,20,radiusPerLength,1.2224152,nowDis,0.76689655
diff,6.0527344,angle,0.18983029,pieceIndex,20,radiusPerLength,1.2224152,nowDis,0.8408859
diff,6.071289,angle,0.29594895,pieceIndex,20,radiusPerLength,1.2224152,nowDis,0.91510683
diff,6.090332,angle,0.43179372,pieceIndex,20,radiusPerLength,1.2224152,nowDis,0.98955464
diff,1.5200195,angle,0.5991989,pieceIndex,21,radiusPerLength,1.2224152,nowDis,0.008134113
diff,6.1259766,angle,0.799485,pieceIndex,21,radiusPerLength,1.2224152,nowDis,0.0830224
diff,6.144043,angle,1.033499,pieceIndex,21,radiusPerLength,1.2224152,nowDis,0.15812431
diff,6.1606445,angle,1.3016529,pieceIndex,21,radiusPerLength,1.2224152,nowDis,0.23343556
diff,6.1777344,angle,1.6039629,pieceIndex,21,radiusPerLength,1.2224152,nowDis,0.30895197
diff,6.1938477,angle,1.9400876,pieceIndex,21,radiusPerLength,1.2224152,nowDis,0.38466942
diff,6.210449,angle,2.3093648,pieceIndex,21,radiusPerLength,1.2224152,nowDis,0.46058393
diff,6.226074,angle,2.710848,pieceIndex,21,radiusPerLength,1.2224152,nowDis,0.53669155
diff,6.241211,angle,3.1433406,pieceIndex,21,radiusPerLength,1.2224152,nowDis,0.6129883
diff,6.256836,angle,3.60543,pieceIndex,21,radiusPerLength,1.2224152,nowDis,0.6894706
diff,6.2714844,angle,4.0955186,pieceIndex,21,radiusPerLength,1.2224152,nowDis,0.76613456
diff,6.286133,angle,4.611856,pieceIndex,21,radiusPerLength,1.2224152,nowDis,0.8429766
diff,6.300293,angle,5.152566,pieceIndex,21,radiusPerLength,1.2224152,nowDis,0.91999334
diff,6.314453,angle,5.715674,pieceIndex,21,radiusPerLength,1.2224152,nowDis,0.99718094
diff,1.7397461,angle,6.299133,pieceIndex,22,radiusPerLength,1.2224152,nowDis,0.018445397
diff,6.341797,angle,6.9008474,pieceIndex,22,radiusPerLength,1.2224152,nowDis,0.09596498
diff,6.354492,angle,7.5186934,pieceIndex,22,radiusPerLength,1.2224152,nowDis,0.17364556
diff,6.367676,angle,8.150541,pieceIndex,22,radiusPerLength,1.2224152,nowDis,0.25148392
diff,6.380371,angle,8.79427,pieceIndex,22,radiusPerLength,1.2224152,nowDis,0.32947686
diff,6.392578,angle,9.447787,pieceIndex,22,radiusPerLength,1.2224152,nowDis,0.40762135
diff,6.404785,angle,10.109043,pieceIndex,22,radiusPerLength,1.2224152,nowDis,0.48591432
diff,6.416504,angle,10.776043,pieceIndex,22,radiusPerLength,1.2224152,nowDis,0.5643528
diff,6.4282227,angle,11.446859,pieceIndex,22,radiusPerLength,1.2224152,nowDis,0.64293396
diff,6.4399414,angle,12.119638,pieceIndex,22,radiusPerLength,1.2224152,nowDis,0.7216548
diff,6.451172,angle,12.792616,pieceIndex,22,radiusPerLength,1.2224152,nowDis,0.80051255
diff,6.461914,angle,13.464116,pieceIndex,22,radiusPerLength,1.2224152,nowDis,0.8795046
diff,6.4726562,angle,14.132564,pieceIndex,22,radiusPerLength,1.2224152,nowDis,0.95862824
diff,6.4833984,angle,14.796483,pieceIndex,22,radiusPerLength,1.2224152,nowDis,1.0378808
diff,1.9047852,angle,15.454507,pieceIndex,23,radiusPerLength,2.561251,nowDis,0.0640815
diff,6.5039062,angle,15.921283,pieceIndex,23,radiusPerLength,2.561251,nowDis,0.14736998
diff,6.513672,angle,16.211946,pieceIndex,23,radiusPerLength,2.561251,nowDis,0.23078556
diff,6.5234375,angle,16.341547,pieceIndex,23,radiusPerLength,2.561251,nowDis,0.31432572
diff,6.532715,angle,16.324932,pieceIndex,23,radiusPerLength,2.561251,nowDis,0.39798796
diff,6.5424805,angle,16.176668,pieceIndex,23,radiusPerLength,2.561251,nowDis,0.4817698
diff,6.5512695,angle,15.91094,pieceIndex,23,radiusPerLength,2.561251,nowDis,0.5656689
diff,6.5600586,angle,15.541486,pieceIndex,23,radiusPerLength,2.561251,nowDis,0.6496829
diff,6.569336,angle,15.08153,pieceIndex,23,radiusPerLength,2.561251,nowDis,0.7338095
diff,6.5776367,angle,14.543728,pieceIndex,23,radiusPerLength,2.561251,nowDis,0.8180464
diff,6.586426,angle,13.940124,pieceIndex,23,radiusPerLength,2.561251,nowDis,0.9023914
diff,6.5947266,angle,13.282113,pieceIndex,23,radiusPerLength,2.561251,nowDis,0.9868425
diff,2.2226562,angle,12.580419,pieceIndex,24,radiusPerLength,2.561251,nowDis,0.015306463
diff,6.6103516,angle,11.845062,pieceIndex,24,radiusPerLength,2.561251,nowDis,0.099963136
diff,6.6186523,angle,11.085364,pieceIndex,24,radiusPerLength,2.561251,nowDis,0.18471955
diff,6.6259766,angle,10.309927,pieceIndex,24,radiusPerLength,2.561251,nowDis,0.2695737
diff,6.633301,angle,9.526642,pieceIndex,24,radiusPerLength,2.561251,nowDis,0.35452366
diff,6.640625,angle,8.742692,pieceIndex,24,radiusPerLength,2.561251,nowDis,0.4395675
diff,6.6484375,angle,7.9645634,pieceIndex,24,radiusPerLength,2.561251,nowDis,0.5247033
diff,6.654785,angle,7.1980624,pieceIndex,24,radiusPerLength,2.561251,nowDis,0.6099293
diff,6.6621094,angle,6.4483323,pieceIndex,24,radiusPerLength,2.561251,nowDis,0.69524366
diff,6.668457,angle,5.7198777,pieceIndex,24,radiusPerLength,2.561251,nowDis,0.7806446
diff,6.675293,angle,5.016588,pieceIndex,24,radiusPerLength,2.561251,nowDis,0.86613035
diff,6.682129,angle,4.3417687,pieceIndex,24,radiusPerLength,2.561251,nowDis,0.95169926
diff,6.7651367,angle,-1.5362352,pieceIndex,26,radiusPerLength,1.2224152,nowDis,0.007656117
diff,6.7695312,angle,-1.3743719,pieceIndex,26,radiusPerLength,1.2224152,nowDis,0.09040989
diff,6.774414,angle,-0.9306424,pieceIndex,26,radiusPerLength,1.2224152,nowDis,0.17321996
diff,6.7788086,angle,-0.23521008,pieceIndex,26,radiusPerLength,1.2224152,nowDis,0.25608522
diff,6.783203,angle,0.6826065,pieceIndex,26,radiusPerLength,1.2224152,nowDis,0.33900455
diff,6.7875977,angle,1.7944946,pieceIndex,26,radiusPerLength,1.2224152,nowDis,0.4219769
diff,6.791504,angle,3.073284,pieceIndex,26,radiusPerLength,1.2224152,nowDis,0.5050011
diff,6.7963867,angle,4.4930606,pieceIndex,26,radiusPerLength,1.2224152,nowDis,0.5880763
diff,6.7998047,angle,6.0292606,pieceIndex,26,radiusPerLength,1.2224152,nowDis,0.6712013
diff,6.804199,angle,7.6587424,pieceIndex,26,radiusPerLength,1.2224152,nowDis,0.7543752
diff,6.8081055,angle,9.359839,pieceIndex,26,radiusPerLength,1.2224152,nowDis,0.8375971
diff,6.8115234,angle,11.112397,pieceIndex,26,radiusPerLength,1.2224152,nowDis,0.9208658
diff,6.815918,angle,12.897797,pieceIndex,26,radiusPerLength,1.2224152,nowDis,1.0041806
diff,2.2304688,angle,14.698953,pieceIndex,27,radiusPerLength,1.2224152,nowDis,0.03144955
diff,6.822754,angle,16.500315,pieceIndex,27,radiusPerLength,1.2224152,nowDis,0.11485359
diff,6.82666,angle,18.287842,pieceIndex,27,radiusPerLength,1.2224152,nowDis,0.19830094
diff,6.82959,angle,20.048973,pieceIndex,27,radiusPerLength,1.2224152,nowDis,0.2817907
diff,6.833496,angle,21.772589,pieceIndex,27,radiusPerLength,1.2224152,nowDis,0.36532205
diff,6.836426,angle,23.448961,pieceIndex,27,radiusPerLength,1.2224152,nowDis,0.44889417
diff,6.840332,angle,25.069706,pieceIndex,27,radiusPerLength,1.2224152,nowDis,0.5325062
diff,6.8427734,angle,26.627708,pieceIndex,27,radiusPerLength,1.2224152,nowDis,0.6161574
diff,6.8461914,angle,28.117073,pieceIndex,27,radiusPerLength,1.2224152,nowDis,0.699847
diff,6.8496094,angle,29.533041,pieceIndex,27,radiusPerLength,1.2224152,nowDis,0.7835741
diff,6.852051,angle,30.871931,pieceIndex,27,radiusPerLength,1.2224152,nowDis,0.8673381
diff,6.8554688,angle,32.131054,pieceIndex,27,radiusPerLength,1.2224152,nowDis,0.9511382
diff,6.8583984,angle,33.308643,pieceIndex,27,radiusPerLength,1.2224152,nowDis,1.0349736
diff,6.8842773,angle,30.06793,pieceIndex,29,radiusPerLength,1.2224152,nowDis,0.061136927
diff,6.8862305,angle,28.002163,pieceIndex,29,radiusPerLength,1.2224152,nowDis,0.14531784
diff,6.888672,angle,25.316832,pieceIndex,29,radiusPerLength,1.2224152,nowDis,0.22952652
diff,6.8911133,angle,22.095865,pieceIndex,29,radiusPerLength,1.2224152,nowDis,0.3137624
diff,6.8930664,angle,18.419456,pieceIndex,29,radiusPerLength,1.2224152,nowDis,0.39802492
diff,6.8950195,angle,14.363741,pieceIndex,29,radiusPerLength,1.2224152,nowDis,0.48231363
diff,6.897461,angle,10.000549,pieceIndex,29,radiusPerLength,1.2224152,nowDis,0.56662786
diff,6.899414,angle,5.3972225,pieceIndex,29,radiusPerLength,1.2224152,nowDis,0.6509673
diff,6.901367,angle,0.61648166,pieceIndex,29,radiusPerLength,1.2224152,nowDis,0.73533124
diff,6.9033203,angle,-4.2836514,pieceIndex,29,radiusPerLength,1.2224152,nowDis,0.8197193
diff,18.024902,angle,-9.249885,pieceIndex,30,radiusPerLength,1.2224152,nowDis,0.040056664
diff,6.9072266,angle,-14.233644,pieceIndex,30,radiusPerLength,1.2224152,nowDis,0.124491505
diff,6.9091797,angle,-19.191017,pieceIndex,30,radiusPerLength,1.2224152,nowDis,0.20894904
diff,6.9106445,angle,-24.082674,pieceIndex,30,radiusPerLength,1.2224152,nowDis,0.29342878
diff,6.9125977,angle,-28.873745,pieceIndex,30,radiusPerLength,1.2224152,nowDis,0.37793034
diff,6.914551,angle,-33.533676,pieceIndex,30,radiusPerLength,1.2224152,nowDis,0.46245325
diff,6.9160156,angle,-38.03607,pieceIndex,30,radiusPerLength,1.2224152,nowDis,0.546997
diff,6.9179688,angle,-42.3585,pieceIndex,30,radiusPerLength,1.2224152,nowDis,0.6315614
diff,6.9194336,angle,-46.482292,pieceIndex,30,radiusPerLength,1.2224152,nowDis,0.7161458
diff,6.9208984,angle,-50.392334,pieceIndex,30,radiusPerLength,1.2224152,nowDis,0.8007499
diff,18.041992,angle,-54.076847,pieceIndex,31,radiusPerLength,1.2224152,nowDis,0.021298941
diff,6.9243164,angle,-56.578537,pieceIndex,31,radiusPerLength,1.2224152,nowDis,0.105941266
diff,6.9257812,angle,-57.993305,pieceIndex,31,radiusPerLength,1.2224152,nowDis,0.19060212
diff,6.927246,angle,-58.41688,pieceIndex,31,radiusPerLength,1.2224152,nowDis,0.27528113
diff,6.928711,angle,-57.944016,pieceIndex,31,radiusPerLength,1.2224152,nowDis,0.35997796
diff,6.9296875,angle,-56.667763,pieceIndex,31,radiusPerLength,1.2224152,nowDis,0.44469222
diff,6.9316406,angle,-54.678833,pieceIndex,31,radiusPerLength,1.2224152,nowDis,0.5294236
diff,6.9331055,angle,-52.065075,pieceIndex,31,radiusPerLength,1.2224152,nowDis,0.61417174
diff,6.934082,angle,-48.910973,pieceIndex,31,radiusPerLength,1.2224152,nowDis,0.6989362
diff,6.935547,angle,-45.29728,pieceIndex,31,radiusPerLength,1.2224152,nowDis,0.78371686
diff,6.9365234,angle,-41.30067,pieceIndex,31,radiusPerLength,1.2224152,nowDis,0.8685132
diff,6.9379883,angle,-36.9935,pieceIndex,31,radiusPerLength,1.2224152,nowDis,0.9533251
diff,6.939453,angle,-32.443607,pieceIndex,31,radiusPerLength,1.2224152,nowDis,1.0381521
diff,2.3520508,angle,-27.714174,pieceIndex,32,radiusPerLength,1.2224152,nowDis,0.066903055
diff,6.9414062,angle,-22.863653,pieceIndex,32,radiusPerLength,1.2224152,nowDis,0.15175943
diff,6.942871,angle,-17.945717,pieceIndex,32,radiusPerLength,1.2224152,nowDis,0.23663007
diff,6.944336,angle,-13.009287,pieceIndex,32,radiusPerLength,1.2224152,nowDis,0.32151464
diff,6.944824,angle,-8.098577,pieceIndex,32,radiusPerLength,1.2224152,nowDis,0.40641293
diff,6.946289,angle,-3.2531767,pieceIndex,32,radiusPerLength,1.2224152,nowDis,0.49132463
diff,6.9472656,angle,1.4918251,pieceIndex,32,radiusPerLength,1.2224152,nowDis,0.5762495
diff,6.948242,angle,6.1056995,pieceIndex,32,radiusPerLength,1.2224152,nowDis,0.66118723
diff,6.949707,angle,10.561909,pieceIndex,32,radiusPerLength,1.2224152,nowDis,0.7461376
diff,6.9501953,angle,14.837917,pieceIndex,32,radiusPerLength,1.2224152,nowDis,0.83110034
diff,6.95166,angle,18.91499,pieceIndex,32,radiusPerLength,1.2224152,nowDis,0.9160752
diff,6.9521484,angle,22.777973,pieceIndex,32,radiusPerLength,1.2224152,nowDis,1.001062
diff,2.364746,angle,26.415075,pieceIndex,33,radiusPerLength,1.2224152,nowDis,0.029969458
diff,6.9541016,angle,29.817629,pieceIndex,33,radiusPerLength,1.2224152,nowDis,0.11497927
diff,6.955078,angle,32.97986,pieceIndex,33,radiusPerLength,1.2224152,nowDis,0.20000026
diff,6.9560547,angle,35.898632,pieceIndex,33,radiusPerLength,1.2224152,nowDis,0.2850322
diff,6.9570312,angle,38.57325,pieceIndex,33,radiusPerLength,1.2224152,nowDis,0.3700749
diff,6.958008,angle,41.00518,pieceIndex,33,radiusPerLength,1.2224152,nowDis,0.45512816
diff,6.958496,angle,43.197845,pieceIndex,33,radiusPerLength,1.2224152,nowDis,0.5401917
diff,6.9594727,angle,45.1564,pieceIndex,33,radiusPerLength,1.2224152,nowDis,0.62526536
diff,6.960449,angle,46.8875,pieceIndex,33,radiusPerLength,1.2224152,nowDis,0.71034884
diff,6.9609375,angle,48.39912,pieceIndex,33,radiusPerLength,1.2224152,nowDis,0.79544216
diff,6.961914,angle,49.700325,pieceIndex,33,radiusPerLength,1.2224152,nowDis,0.8805449
diff,6.9624023,angle,50.801098,pieceIndex,33,radiusPerLength,1.2224152,nowDis,0.96565706
diff,6.963379,angle,51.712166,pieceIndex,33,radiusPerLength,1.2224152,nowDis,1.0507783
diff,2.3754883,angle,52.44482,pieceIndex,34,radiusPerLength,1.2224152,nowDis,0.07981761
diff,6.9648438,angle,53.010777,pieceIndex,34,radiusPerLength,1.2224152,nowDis,0.16495658
diff,6.9658203,angle,53.422024,pieceIndex,34,radiusPerLength,1.2224152,nowDis,0.2501042
diff,6.9663086,angle,53.69068,pieceIndex,34,radiusPerLength,1.2224152,nowDis,0.33526018
diff,6.966797,angle,53.82891,pieceIndex,34,radiusPerLength,1.2224152,nowDis,0.4204245
diff,6.967285,angle,53.84877,pieceIndex,34,radiusPerLength,1.2224152,nowDis,0.5055968
diff,6.9682617,angle,53.762157,pieceIndex,34,radiusPerLength,1.2224152,nowDis,0.59077716
diff,6.96875,angle,53.580685,pieceIndex,34,radiusPerLength,1.2224152,nowDis,0.67596525
diff,6.9697266,angle,53.315636,pieceIndex,34,radiusPerLength,1.2224152,nowDis,0.7611609
diff,6.9697266,angle,52.977886,pieceIndex,34,radiusPerLength,1.2224152,nowDis,0.8463641
diff,6.970703,angle,52.57786,pieceIndex,34,radiusPerLength,1.2224152,nowDis,0.9315745
diff,6.9716797,angle,52.12547,pieceIndex,34,radiusPerLength,1.2224152,nowDis,1.0167923


diff,6.998047,angle,-0.06787875,pieceIndex,4,radiusPerLength,1.2224152,nowDis,0.018124344
diff,6.9975586,angle,0.31427506,pieceIndex,4,radiusPerLength,1.2224152,nowDis,0.10366747
diff,6.998047,angle,1.0322835,pieceIndex,4,radiusPerLength,1.2224152,nowDis,0.1892111
diff,6.998047,angle,2.0462978,pieceIndex,4,radiusPerLength,1.2224152,nowDis,0.27475527
diff,6.998047,angle,3.3178642,pieceIndex,4,radiusPerLength,1.2224152,nowDis,0.36029992
diff,6.998047,angle,4.8101206,pieceIndex,4,radiusPerLength,1.2224152,nowDis,0.44584504
diff,6.998047,angle,6.4879613,pieceIndex,4,radiusPerLength,1.2224152,nowDis,0.53139067
diff,6.998047,angle,8.318166,pieceIndex,4,radiusPerLength,1.2224152,nowDis,0.61693674
diff,6.998047,angle,10.269504,pieceIndex,4,radiusPerLength,1.2224152,nowDis,0.70248324
diff,6.998047,angle,12.312806,pieceIndex,4,radiusPerLength,1.2224152,nowDis,0.78803027
diff,6.998535,angle,14.421018,pieceIndex,4,radiusPerLength,1.2224152,nowDis,0.8735777
diff,6.998047,angle,16.569218,pieceIndex,4,radiusPerLength,1.2224152,nowDis,0.9591256
diff,6.998535,angle,18.734632,pieceIndex,4,radiusPerLength,1.2224152,nowDis,1.0446738
diff,2.409668,angle,20.896608,pieceIndex,5,radiusPerLength,1.2224152,nowDis,0.074131675
diff,6.998047,angle,23.036589,pieceIndex,5,radiusPerLength,1.2224152,nowDis,0.1596808
diff,6.998535,angle,25.13807,pieceIndex,5,radiusPerLength,1.2224152,nowDis,0.2452303
diff,6.998535,angle,27.186523,pieceIndex,5,radiusPerLength,1.2224152,nowDis,0.3307802
diff,6.998535,angle,29.16935,pieceIndex,5,radiusPerLength,1.2224152,nowDis,0.41633046
diff,6.998535,angle,31.075777,pieceIndex,5,radiusPerLength,1.2224152,nowDis,0.5018812
diff,6.998535,angle,32.89678,pieceIndex,5,radiusPerLength,1.2224152,nowDis,0.58743215
diff,6.998535,angle,34.624973,pieceIndex,5,radiusPerLength,1.2224152,nowDis,0.6729836
diff,6.998535,angle,36.25454,pieceIndex,5,radiusPerLength,1.2224152,nowDis,0.7585353
diff,6.998535,angle,37.78109,pieceIndex,5,radiusPerLength,1.2224152,nowDis,0.8440874
diff,6.998535,angle,39.201588,pieceIndex,5,radiusPerLength,1.2224152,nowDis,0.9296399
diff,6.9990234,angle,40.514217,pieceIndex,5,radiusPerLength,1.2224152,nowDis,1.0151926
diff,2.409668,angle,41.718292,pieceIndex,6,radiusPerLength,1.2224152,nowDis,0.044654794
diff,6.9990234,angle,42.814144,pieceIndex,6,radiusPerLength,1.2224152,nowDis,0.13020821
diff,6.998535,angle,43.80302,pieceIndex,6,radiusPerLength,1.2224152,nowDis,0.21576191
diff,6.9990234,angle,44.686974,pieceIndex,6,radiusPerLength,1.2224152,nowDis,0.30131596
diff,6.998535,angle,45.46877,pieceIndex,6,radiusPerLength,1.2224152,nowDis,0.3868703
diff,6.9990234,angle,46.151794,pieceIndex,6,radiusPerLength,1.2224152,nowDis,0.47242492
diff,6.998535,angle,46.739964,pieceIndex,6,radiusPerLength,1.2224152,nowDis,0.5579798
diff,6.9990234,angle,47.237617,pieceIndex,6,radiusPerLength,1.2224152,nowDis,0.643535
diff,6.9990234,angle,47.649467,pieceIndex,6,radiusPerLength,1.2224152,nowDis,0.72909045
diff,6.9990234,angle,47.9805,pieceIndex,6,radiusPerLength,1.2224152,nowDis,0.8146462
diff,6.998535,angle,48.2359,pieceIndex,6,radiusPerLength,1.2224152,nowDis,0.9002023
diff,6.9990234,angle,48.421013,pieceIndex,6,radiusPerLength,1.2224152,nowDis,0.9857585
diff,2.4106445,angle,48.54125,pieceIndex,7,radiusPerLength,1.2224152,nowDis,0.015224146
diff,6.9990234,angle,48.602055,pieceIndex,7,radiusPerLength,1.2224152,nowDis,0.10078093
diff,6.9990234,angle,48.60885,pieceIndex,7,radiusPerLength,1.2224152,nowDis,0.18633795
diff,6.9990234,angle,48.56698,pieceIndex,7,radiusPerLength,1.2224152,nowDis,0.2718952
diff,6.9990234,angle,48.481686,pieceIndex,7,radiusPerLength,1.2224152,nowDis,0.35745272
diff,6.9990234,angle,48.35806,pieceIndex,7,radiusPerLength,1.2224152,nowDis,0.44301045
diff,6.9990234,angle,48.201027,pieceIndex,7,radiusPerLength,1.2224152,nowDis,0.52856845
diff,6.9990234,angle,48.01531,pieceIndex,7,radiusPerLength,1.2224152,nowDis,0.61412656
diff,6.9990234,angle,47.8054,pieceIndex,7,radiusPerLength,1.2224152,nowDis,0.699685
diff,6.9995117,angle,47.57557,pieceIndex,7,radiusPerLength,1.2224152,nowDis,0.7852436
diff,6.9990234,angle,47.32982,pieceIndex,7,radiusPerLength,1.2224152,nowDis,0.8708024
diff,6.9990234,angle,47.071903,pieceIndex,7,radiusPerLength,1.2224152,nowDis,0.9563615
diff,6.9990234,angle,46.805294,pieceIndex,7,radiusPerLength,1.2224152,nowDis,1.0419207
diff,2.4111328,angle,46.533207,pieceIndex,8,radiusPerLength,2.561251,nowDis,0.07478868
diff,6.9995117,angle,45.881207,pieceIndex,8,radiusPerLength,2.561251,nowDis,0.16442256
diff,6.9990234,angle,44.89299,pieceIndex,8,radiusPerLength,2.561251,nowDis,0.25405663
diff,6.9995117,angle,43.610825,pieceIndex,8,radiusPerLength,2.561251,nowDis,0.34369093
diff,6.9990234,angle,42.07532,pieceIndex,8,radiusPerLength,2.561251,nowDis,0.4333254
diff,6.9995117,angle,40.32525,pieceIndex,8,radiusPerLength,2.561251,nowDis,0.52296007
diff,6.9990234,angle,38.39737,pieceIndex,8,radiusPerLength,2.561251,nowDis,0.6125949
diff,6.9995117,angle,36.32634,pieceIndex,8,radiusPerLength,2.561251,nowDis,0.70222986
diff,6.9995117,angle,34.144585,pieceIndex,8,radiusPerLength,2.561251,nowDis,0.79186505
diff,6.9990234,angle,31.88227,pieceIndex,8,radiusPerLength,2.561251,nowDis,0.8815004
diff,6.9995117,angle,29.567244,pieceIndex,8,radiusPerLength,2.561251,nowDis,0.971136
diff,6.9995117,angle,-5.8556576,pieceIndex,11,radiusPerLength,2.561251,nowDis,0.042923838
diff,7.0,angle,-5.734519,pieceIndex,11,radiusPerLength,2.561251,nowDis,0.1325632
diff,6.9995117,angle,-5.57532,pieceIndex,11,radiusPerLength,2.561251,nowDis,0.22220266
diff,6.9995117,angle,-5.383259,pieceIndex,11,radiusPerLength,2.561251,nowDis,0.3118422
diff,7.0,angle,-5.163303,pieceIndex,11,radiusPerLength,2.561251,nowDis,0.40148184
diff,6.9995117,angle,-4.9201655,pieceIndex,11,radiusPerLength,2.561251,nowDis,0.49112153
diff,6.9995117,angle,-4.6582923,pieceIndex,11,radiusPerLength,2.561251,nowDis,0.5807614
diff,7.0,angle,-4.3818483,pieceIndex,11,radiusPerLength,2.561251,nowDis,0.6704012
diff,6.9995117,angle,-4.094709,pieceIndex,11,radiusPerLength,2.561251,nowDis,0.7600412
diff,7.0,angle,-3.8004565,pieceIndex,11,radiusPerLength,2.561251,nowDis,0.8496812
diff,6.9995117,angle,-3.5023768,pieceIndex,11,radiusPerLength,2.561251,nowDis,0.93932134
diff,7.0,angle,0.7472983,pieceIndex,14,radiusPerLength,1.2224152,nowDis,0.021142554
diff,7.0,angle,0.09336696,pieceIndex,14,radiusPerLength,1.2224152,nowDis,0.106709704
diff,7.0,angle,-1.1350958,pieceIndex,14,radiusPerLength,1.2224152,nowDis,0.1922769
diff,7.0,angle,-2.8698897,pieceIndex,14,radiusPerLength,1.2224152,nowDis,0.27784413
diff,6.9990234,angle,-5.0452037,pieceIndex,14,radiusPerLength,1.2224152,nowDis,0.36341137
diff,7.0,angle,-7.5979543,pieceIndex,14,radiusPerLength,1.2224152,nowDis,0.4489787
diff,7.0,angle,-10.468062,pieceIndex,14,radiusPerLength,1.2224152,nowDis,0.534546
diff,7.0,angle,-13.5986805,pieceIndex,14,radiusPerLength,1.2224152,nowDis,0.6201134
diff,7.0,angle,-16.936367,pieceIndex,14,radiusPerLength,1.2224152,nowDis,0.7056808
diff,7.0,angle,-20.431213,pieceIndex,14,radiusPerLength,1.2224152,nowDis,0.7912482
diff,18.118164,angle,-24.036922,pieceIndex,15,radiusPerLength,1.2224152,nowDis,0.012741293
diff,7.0,angle,-27.710863,pieceIndex,15,radiusPerLength,1.2224152,nowDis,0.098308794
diff,7.0,angle,-31.414066,pieceIndex,15,radiusPerLength,1.2224152,nowDis,0.18387632
diff,7.0,angle,-35.111202,pieceIndex,15,radiusPerLength,1.2224152,nowDis,0.2694439
diff,7.0,angle,-38.77053,pieceIndex,15,radiusPerLength,1.2224152,nowDis,0.35501146
diff,7.0,angle,-42.363815,pieceIndex,15,radiusPerLength,1.2224152,nowDis,0.4405791
diff,7.0,angle,-45.866222,pieceIndex,15,radiusPerLength,1.2224152,nowDis,0.5261467
diff,6.9990234,angle,-49.25619,pieceIndex,15,radiusPerLength,1.2224152,nowDis,0.6117144
diff,7.0,angle,-52.51531,pieceIndex,15,radiusPerLength,1.2224152,nowDis,0.69728214
diff,7.0,angle,-55.62814,pieceIndex,15,radiusPerLength,1.2224152,nowDis,0.7828499
diff,18.120117,angle,-58.582085,pieceIndex,16,radiusPerLength,1.2224152,nowDis,0.0043432354

diff,0.0,angle,0.0,pieceIndex,16,radiusPerLength,1.2224152,nowDis,0.0043432354
diff,0.0,angle,0.0,pieceIndex,16,radiusPerLength,1.2224152,nowDis,0.0043432354
diff,0.13964844,angle,0.0,pieceIndex,16,radiusPerLength,1.2224152,nowDis,0.0060546165
diff,0.27734375,angle,0.0,pieceIndex,16,radiusPerLength,1.2224152,nowDis,0.009443151
diff,0.41210938,angle,0.0,pieceIndex,16,radiusPerLength,1.2224152,nowDis,0.014475297
diff,0.54296875,angle,0.0,pieceIndex,16,radiusPerLength,1.2224152,nowDis,0.02111818
diff,0.67285156,angle,0.0,pieceIndex,16,radiusPerLength,1.2224152,nowDis,0.02933959
diff,0.7988281,angle,0.0,pieceIndex,16,radiusPerLength,1.2224152,nowDis,0.03910795
diff,0.92285156,angle,0.0,pieceIndex,16,radiusPerLength,1.2224152,nowDis,0.050392322
diff,1.0449219,angle,0.0,pieceIndex,16,radiusPerLength,1.2224152,nowDis,0.063162394
diff,1.1640625,angle,0.0,pieceIndex,16,radiusPerLength,1.2224152,nowDis,0.077388436
diff,1.2802734,angle,0.0,pieceIndex,16,radiusPerLength,1.2224152,nowDis,0.093041345
diff,1.3945312,angle,0.0,pieceIndex,16,radiusPerLength,1.2224152,nowDis,0.11009258
diff,1.5068359,angle,0.0,pieceIndex,16,radiusPerLength,1.2224152,nowDis,0.12851417
diff,1.6171875,angle,0.0,pieceIndex,16,radiusPerLength,1.2224152,nowDis,0.1482787
diff,1.7246094,angle,0.0,pieceIndex,16,radiusPerLength,1.2224152,nowDis,0.16935933
diff,1.8300781,angle,0.0,pieceIndex,16,radiusPerLength,1.2224152,nowDis,0.19172972
diff,1.9335938,angle,0.0,pieceIndex,16,radiusPerLength,1.2224152,nowDis,0.2153641
diff,2.0341797,angle,0.0,pieceIndex,16,radiusPerLength,1.2224152,nowDis,0.24023718
diff,2.1347656,angle,0.0,pieceIndex,16,radiusPerLength,1.2224152,nowDis,0.26632416
diff,2.2314453,angle,0.0,pieceIndex,16,radiusPerLength,1.2224152,nowDis,0.29360077
diff,2.3261719,angle,0.0,pieceIndex,16,radiusPerLength,1.2224152,nowDis,0.32204324
diff,2.4199219,angle,0.0,pieceIndex,16,radiusPerLength,1.2224152,nowDis,0.35162824
diff,2.5117188,angle,0.0,pieceIndex,16,radiusPerLength,1.2224152,nowDis,0.38233292
diff,2.602539,angle,0.0,pieceIndex,16,radiusPerLength,1.2224152,nowDis,0.41413492
diff,2.6894531,angle,0.0,pieceIndex,16,radiusPerLength,1.2224152,nowDis,0.44701222
diff,2.7753906,angle,0.0,pieceIndex,16,radiusPerLength,1.2224152,nowDis,0.48094335
diff,2.8603516,angle,0.0,pieceIndex,16,radiusPerLength,1.2224152,nowDis,0.5159073
diff,2.9423828,angle,0.0,pieceIndex,16,radiusPerLength,1.2224152,nowDis,0.5518833
diff,3.024414,angle,0.0,pieceIndex,16,radiusPerLength,1.2224152,nowDis,0.58885115
diff,3.1035156,angle,0.0,pieceIndex,16,radiusPerLength,1.2224152,nowDis,0.62679106
diff,3.1816406,angle,0.0,pieceIndex,16,radiusPerLength,1.2224152,nowDis,0.66568357
diff,3.258789,angle,0.0,pieceIndex,16,radiusPerLength,1.2224152,nowDis,0.70550954
diff,3.3320312,angle,0.0,pieceIndex,16,radiusPerLength,1.2224152,nowDis,0.74625045
diff,3.40625,angle,0.0,pieceIndex,16,radiusPerLength,1.2224152,nowDis,0.7878879
diff,3.4785156,angle,0.0,pieceIndex,16,radiusPerLength,1.2224152,nowDis,0.830404
diff,14.667969,angle,0.0,pieceIndex,17,radiusPerLength,1.2224152,nowDis,0.009706706
diff,3.6171875,angle,0.0,pieceIndex,17,radiusPerLength,1.2224152,nowDis,0.05392767
diff,3.6855469,angle,0.0,pieceIndex,17,radiusPerLength,1.2224152,nowDis,0.0989756
diff,3.7519531,angle,0.0,pieceIndex,17,radiusPerLength,1.2224152,nowDis,0.14483395
diff,3.8164062,angle,0.0,pieceIndex,17,radiusPerLength,1.2224152,nowDis,0.19148652
diff,3.8798828,angle,0.0,pieceIndex,17,radiusPerLength,1.2224152,nowDis,0.23891741
diff,3.9423828,angle,0.0,pieceIndex,17,radiusPerLength,1.2224152,nowDis,0.28711107
diff,4.0039062,angle,0.0,pieceIndex,17,radiusPerLength,1.2224152,nowDis,0.33605227
diff,4.0634766,angle,0.0,pieceIndex,17,radiusPerLength,1.2224152,nowDis,0.38572598
diff,4.1220703,angle,0.0,pieceIndex,17,radiusPerLength,1.2224152,nowDis,0.4361176
diff,4.1796875,angle,0.0,pieceIndex,17,radiusPerLength,1.2224152,nowDis,0.48721278
diff,4.236328,angle,0.0,pieceIndex,17,radiusPerLength,1.2224152,nowDis,0.5389975
diff,4.291992,angle,0.0,pieceIndex,17,radiusPerLength,1.2224152,nowDis,0.5914578
diff,4.345703,angle,0.0,pieceIndex,17,radiusPerLength,1.2224152,nowDis,0.6445803
diff,4.3984375,angle,0.0,pieceIndex,17,radiusPerLength,1.2224152,nowDis,0.69835174
diff,4.451172,angle,0.0,pieceIndex,17,radiusPerLength,1.2224152,nowDis,0.75275916
diff,4.5009766,angle,0.0,pieceIndex,17,radiusPerLength,1.2224152,nowDis,0.8077898
diff,4.551758,angle,0.0,pieceIndex,17,radiusPerLength,1.2224152,nowDis,0.8634313
diff,5.3652344,angle,0.0,pieceIndex,19,radiusPerLength,1.2224152,nowDis,8.849084E-4
diff,5.3984375,angle,0.0,pieceIndex,19,radiusPerLength,1.2224152,nowDis,0.066873625
diff,5.4296875,angle,0.0,pieceIndex,19,radiusPerLength,1.2224152,nowDis,0.13325395
diff,5.461914,angle,0.0,pieceIndex,19,radiusPerLength,1.2224152,nowDis,0.20001805
diff,5.4921875,angle,0.0,pieceIndex,19,radiusPerLength,1.2224152,nowDis,0.26715824
diff,5.5234375,angle,0.0,pieceIndex,19,radiusPerLength,1.2224152,nowDis,0.33466703
diff,5.551758,angle,0.0,pieceIndex,19,radiusPerLength,1.2224152,nowDis,0.40253702
diff,5.5810547,angle,0.0,pieceIndex,19,radiusPerLength,1.2224152,nowDis,0.47076097
diff,5.609375,angle,0.0,pieceIndex,19,radiusPerLength,1.2224152,nowDis,0.53933185
diff,5.6376953,angle,0.0,pieceIndex,19,radiusPerLength,1.2224152,nowDis,0.6082427
diff,5.6640625,angle,0.0,pieceIndex,19,radiusPerLength,1.2224152,nowDis,0.67748666
diff,5.6914062,angle,0.0,pieceIndex,19,radiusPerLength,1.2224152,nowDis,0.7470572
diff,5.7177734,angle,0.0,pieceIndex,19,radiusPerLength,1.2224152,nowDis,0.81694764
diff,5.7421875,angle,0.0,pieceIndex,19,radiusPerLength,1.2224152,nowDis,0.88715166
diff,5.7685547,angle,0.0,pieceIndex,19,radiusPerLength,1.2224152,nowDis,0.95766306
diff,5.7929688,angle,0.0,pieceIndex,19,radiusPerLength,1.2224152,nowDis,1.0284755
diff,1.2285156,angle,0.0,pieceIndex,20,radiusPerLength,1.2224152,nowDis,0.04349224
diff,5.8408203,angle,0.0,pieceIndex,20,radiusPerLength,1.2224152,nowDis,0.11488909
diff,5.864258,angle,0.0,pieceIndex,20,radiusPerLength,1.2224152,nowDis,0.1865694
diff,5.885742,angle,0.0,pieceIndex,20,radiusPerLength,1.2224152,nowDis,0.25852746
diff,5.9091797,angle,0.0,pieceIndex,20,radiusPerLength,1.2224152,nowDis,0.33075774
diff,5.930664,angle,0.0,pieceIndex,20,radiusPerLength,1.2224152,nowDis,0.40325484
diff,5.9521484,angle,0.0,pieceIndex,20,radiusPerLength,1.2224152,nowDis,0.47601336
diff,5.9726562,angle,0.005739532,pieceIndex,20,radiusPerLength,1.2224152,nowDis,0.54902804
diff,5.9941406,angle,0.02295225,pieceIndex,20,radiusPerLength,1.2224152,nowDis,0.6222939
diff,6.013672,angle,0.056628283,pieceIndex,20,radiusPerLength,1.2224152,nowDis,0.6958057
diff,6.033203,angle,0.111050196,pieceIndex,20,radiusPerLength,1.2224152,nowDis,0.7695588
diff,6.0527344,angle,0.18983029,pieceIndex,20,radiusPerLength,1.2224152,nowDis,0.84354806
diff,6.071289,angle,0.29594895,pieceIndex,20,radiusPerLength,1.2224152,nowDis,0.917769
diff,6.0908203,angle,0.43179372,pieceIndex,20,radiusPerLength,1.2224152,nowDis,0.99221694
diff,1.5185547,angle,0.5991989,pieceIndex,21,radiusPerLength,1.2224152,nowDis,0.010796334
diff,6.126953,angle,0.799485,pieceIndex,21,radiusPerLength,1.2224152,nowDis,0.08568463
diff,6.1435547,angle,1.033499,pieceIndex,21,radiusPerLength,1.2224152,nowDis,0.16078652
diff,6.161133,angle,1.3016529,pieceIndex,21,radiusPerLength,1.2224152,nowDis,0.2360978
diff,6.176758,angle,1.6039629,pieceIndex,21,radiusPerLength,1.2224152,nowDis,0.3116142
diff,6.194336,angle,1.9400876,pieceIndex,21,radiusPerLength,1.2224152,nowDis,0.38733166
diff,6.209961,angle,2.3093648,pieceIndex,21,radiusPerLength,1.2224152,nowDis,0.46324614
diff,6.2265625,angle,2.710848,pieceIndex,21,radiusPerLength,1.2224152,nowDis,0.5393537
diff,6.241211,angle,3.1433406,pieceIndex,21,radiusPerLength,1.2224152,nowDis,0.61565053
diff,6.256836,angle,3.60543,pieceIndex,21,radiusPerLength,1.2224152,nowDis,0.69213283
diff,6.2714844,angle,4.0955186,pieceIndex,21,radiusPerLength,1.2224152,nowDis,0.7687968
diff,6.286133,angle,4.611856,pieceIndex,21,radiusPerLength,1.2224152,nowDis,0.8456388
diff,6.3007812,angle,5.152566,pieceIndex,21,radiusPerLength,1.2224152,nowDis,0.9226555
diff,6.3134766,angle,5.715674,pieceIndex,21,radiusPerLength,1.2224152,nowDis,0.99984324
diff,1.7402344,angle,6.299133,pieceIndex,22,radiusPerLength,1.2224152,nowDis,0.021107618
diff,6.341797,angle,6.9008474,pieceIndex,22,radiusPerLength,1.2224152,nowDis,0.0986272
diff,6.354492,angle,7.5186934,pieceIndex,22,radiusPerLength,1.2224152,nowDis,0.17630778
diff,6.3671875,angle,8.150541,pieceIndex,22,radiusPerLength,1.2224152,nowDis,0.25414613
diff,6.3808594,angle,8.79427,pieceIndex,22,radiusPerLength,1.2224152,nowDis,0.33213907
diff,6.392578,angle,9.447787,pieceIndex,22,radiusPerLength,1.2224152,nowDis,0.4102836
diff,6.404297,angle,10.109043,pieceIndex,22,radiusPerLength,1.2224152,nowDis,0.48857656
diff,6.416992,angle,10.776043,pieceIndex,22,radiusPerLength,1.2224152,nowDis,0.567015
diff,6.428711,angle,11.446859,pieceIndex,22,radiusPerLength,1.2224152,nowDis,0.64559615
diff,6.439453,angle,12.119638,pieceIndex,22,radiusPerLength,1.2224152,nowDis,0.724317
diff,6.451172,angle,12.792616,pieceIndex,22,radiusPerLength,1.2224152,nowDis,0.80317485
diff,6.461914,angle,13.464116,pieceIndex,22,radiusPerLength,1.2224152,nowDis,0.8821669
diff,6.4726562,angle,14.132564,pieceIndex,22,radiusPerLength,1.2224152,nowDis,0.9612905
diff,6.4833984,angle,14.796483,pieceIndex,22,radiusPerLength,1.2224152,nowDis,1.040543
diff,1.9052734,angle,15.454507,pieceIndex,23,radiusPerLength,2.561251,nowDis,0.066870496
diff,6.5039062,angle,15.921283,pieceIndex,23,radiusPerLength,2.561251,nowDis,0.15015899
diff,6.513672,angle,16.211946,pieceIndex,23,radiusPerLength,2.561251,nowDis,0.23357457
diff,6.5234375,angle,16.341547,pieceIndex,23,radiusPerLength,2.561251,nowDis,0.3171147
diff,6.5322266,angle,16.324932,pieceIndex,23,radiusPerLength,2.561251,nowDis,0.40077692
diff,6.5429688,angle,16.176668,pieceIndex,23,radiusPerLength,2.561251,nowDis,0.48455876
diff,6.5507812,angle,15.91094,pieceIndex,23,radiusPerLength,2.561251,nowDis,0.5684579
diff,6.560547,angle,15.541486,pieceIndex,23,radiusPerLength,2.561251,nowDis,0.6524719
diff,6.569336,angle,15.08153,pieceIndex,23,radiusPerLength,2.561251,nowDis,0.73659843
diff,6.578125,angle,14.543728,pieceIndex,23,radiusPerLength,2.561251,nowDis,0.82083535
diff,6.5859375,angle,13.940124,pieceIndex,23,radiusPerLength,2.561251,nowDis,0.90518045
diff,6.5947266,angle,13.282113,pieceIndex,23,radiusPerLength,2.561251,nowDis,0.9896315
diff,2.2226562,angle,12.580419,pieceIndex,24,radiusPerLength,2.561251,nowDis,0.018095458
diff,6.6103516,angle,11.845062,pieceIndex,24,radiusPerLength,2.561251,nowDis,0.10275212
diff,6.618164,angle,11.085364,pieceIndex,24,radiusPerLength,2.561251,nowDis,0.18750854
diff,6.6259766,angle,10.309927,pieceIndex,24,radiusPerLength,2.561251,nowDis,0.2723627
diff,6.633789,angle,9.526642,pieceIndex,24,radiusPerLength,2.561251,nowDis,0.35731265
diff,6.640625,angle,8.742692,pieceIndex,24,radiusPerLength,2.561251,nowDis,0.44235647
diff,6.6484375,angle,7.9645634,pieceIndex,24,radiusPerLength,2.561251,nowDis,0.5274923
diff,6.6552734,angle,7.1980624,pieceIndex,24,radiusPerLength,2.561251,nowDis,0.6127183
diff,6.661133,angle,6.4483323,pieceIndex,24,radiusPerLength,2.561251,nowDis,0.6980327
diff,6.6689453,angle,5.7198777,pieceIndex,24,radiusPerLength,2.561251,nowDis,0.7834336
diff,6.6757812,angle,5.016588,pieceIndex,24,radiusPerLength,2.561251,nowDis,0.8689194
diff,6.6816406,angle,4.3417687,pieceIndex,24,radiusPerLength,2.561251,nowDis,0.95448834
diff,6.7646484,angle,-1.5362352,pieceIndex,26,radiusPerLength,1.2224152,nowDis,0.010318338
diff,6.770508,angle,-1.3743719,pieceIndex,26,radiusPerLength,1.2224152,nowDis,0.09307211
diff,6.7734375,angle,-0.9306424,pieceIndex,26,radiusPerLength,1.2224152,nowDis,0.17588219
diff,6.779297,angle,-0.23521008,pieceIndex,26,radiusPerLength,1.2224152,nowDis,0.25874743
diff,6.783203,angle,0.6826065,pieceIndex,26,radiusPerLength,1.2224152,nowDis,0.3416668
diff,6.7871094,angle,1.7944946,pieceIndex,26,radiusPerLength,1.2224152,nowDis,0.42463908
diff,6.791992,angle,3.073284,pieceIndex,26,radiusPerLength,1.2224152,nowDis,0.50766337
diff,6.7958984,angle,4.4930606,pieceIndex,26,radiusPerLength,1.2224152,nowDis,0.59073853
diff,6.8007812,angle,6.0292606,pieceIndex,26,radiusPerLength,1.2224152,nowDis,0.67386353
diff,6.803711,angle,7.6587424,pieceIndex,26,radiusPerLength,1.2224152,nowDis,0.75703746
diff,6.807617,angle,9.359839,pieceIndex,26,radiusPerLength,1.2224152,nowDis,0.84025925
diff,6.8125,angle,11.112397,pieceIndex,26,radiusPerLength,1.2224152,nowDis,0.9235281
diff,6.8154297,angle,12.897797,pieceIndex,26,radiusPerLength,1.2224152,nowDis,1.0068427
diff,2.2294922,angle,14.698953,pieceIndex,27,radiusPerLength,1.2224152,nowDis,0.03411177
diff,6.823242,angle,16.500315,pieceIndex,27,radiusPerLength,1.2224152,nowDis,0.1175158
diff,6.826172,angle,18.287842,pieceIndex,27,radiusPerLength,1.2224152,nowDis,0.20096315
diff,6.830078,angle,20.048973,pieceIndex,27,radiusPerLength,1.2224152,nowDis,0.28445292
diff,6.8339844,angle,21.772589,pieceIndex,27,radiusPerLength,1.2224152,nowDis,0.36798427
diff,6.8359375,angle,23.448961,pieceIndex,27,radiusPerLength,1.2224152,nowDis,0.4515564
diff,6.8398438,angle,25.069706,pieceIndex,27,radiusPerLength,1.2224152,nowDis,0.53516847
diff,6.84375,angle,26.627708,pieceIndex,27,radiusPerLength,1.2224152,nowDis,0.61881965
diff,6.845703,angle,28.117073,pieceIndex,27,radiusPerLength,1.2224152,nowDis,0.70250916
diff,6.8496094,angle,29.533041,pieceIndex,27,radiusPerLength,1.2224152,nowDis,0.78623635
diff,6.852539,angle,30.871931,pieceIndex,27,radiusPerLength,1.2224152,nowDis,0.8700003
diff,6.8554688,angle,32.131054,pieceIndex,27,radiusPerLength,1.2224152,nowDis,0.9538004
diff,6.857422,angle,33.308643,pieceIndex,27,radiusPerLength,1.2224152,nowDis,1.0376358
diff,6.883789,angle,30.06793,pieceIndex,29,radiusPerLength,1.2224152,nowDis,0.06379914
diff,6.8867188,angle,28.002163,pieceIndex,29,radiusPerLength,1.2224152,nowDis,0.14798005
diff,6.888672,angle,25.316832,pieceIndex,29,radiusPerLength,1.2224152,nowDis,0.23218873
diff,6.890625,angle,22.095865,pieceIndex,29,radiusPerLength,1.2224152,nowDis,0.3164246
diff,6.8935547,angle,18.419456,pieceIndex,29,radiusPerLength,1.2224152,nowDis,0.40068716
diff,6.895508,angle,14.363741,pieceIndex,29,radiusPerLength,1.2224152,nowDis,0.48497587
diff,6.897461,angle,10.000549,pieceIndex,29,radiusPerLength,1.2224152,nowDis,0.5692901
diff,6.899414,angle,5.3972225,pieceIndex,29,radiusPerLength,1.2224152,nowDis,0.6536295
diff,6.901367,angle,0.61648166,pieceIndex,29,radiusPerLength,1.2224152,nowDis,0.7379935
diff,6.9033203,angle,-4.2836514,pieceIndex,29,radiusPerLength,1.2224152,nowDis,0.8223816
diff,18.024414,angle,-9.249885,pieceIndex,30,radiusPerLength,1.2224152,nowDis,0.042718887
diff,6.90625,angle,-14.233644,pieceIndex,30,radiusPerLength,1.2224152,nowDis,0.12715372
diff,6.9091797,angle,-19.191017,pieceIndex,30,radiusPerLength,1.2224152,nowDis,0.21161126
diff,6.911133,angle,-24.082674,pieceIndex,30,radiusPerLength,1.2224152,nowDis,0.296091
diff,6.913086,angle,-28.873745,pieceIndex,30,radiusPerLength,1.2224152,nowDis,0.38059255
diff,6.9140625,angle,-33.533676,pieceIndex,30,radiusPerLength,1.2224152,nowDis,0.46511543
diff,6.9160156,angle,-38.03607,pieceIndex,30,radiusPerLength,1.2224152,nowDis,0.54965925
diff,6.9179688,angle,-42.3585,pieceIndex,30,radiusPerLength,1.2224152,nowDis,0.6342236
diff,6.919922,angle,-46.482292,pieceIndex,30,radiusPerLength,1.2224152,nowDis,0.718808
diff,6.9208984,angle,-50.392334,pieceIndex,30,radiusPerLength,1.2224152,nowDis,0.80341214
diff,18.041992,angle,-54.076847,pieceIndex,31,radiusPerLength,1.2224152,nowDis,0.023961162
diff,6.9248047,angle,-56.578537,pieceIndex,31,radiusPerLength,1.2224152,nowDis,0.10860349
diff,6.9248047,angle,-57.993305,pieceIndex,31,radiusPerLength,1.2224152,nowDis,0.19326435
diff,6.9277344,angle,-58.41688,pieceIndex,31,radiusPerLength,1.2224152,nowDis,0.27794334
diff,6.928711,angle,-57.944016,pieceIndex,31,radiusPerLength,1.2224152,nowDis,0.36264017
diff,6.9296875,angle,-56.667763,pieceIndex,31,radiusPerLength,1.2224152,nowDis,0.44735447
diff,6.9316406,angle,-54.678833,pieceIndex,31,radiusPerLength,1.2224152,nowDis,0.53208584
diff,6.932617,angle,-52.065075,pieceIndex,31,radiusPerLength,1.2224152,nowDis,0.6168339
diff,6.9345703,angle,-48.910973,pieceIndex,31,radiusPerLength,1.2224152,nowDis,0.70159847
diff,6.935547,angle,-45.29728,pieceIndex,31,radiusPerLength,1.2224152,nowDis,0.78637904
diff,6.9365234,angle,-41.30067,pieceIndex,31,radiusPerLength,1.2224152,nowDis,0.8711755
diff,6.9384766,angle,-36.9935,pieceIndex,31,radiusPerLength,1.2224152,nowDis,0.9559874
diff,6.939453,angle,-32.443607,pieceIndex,31,radiusPerLength,1.2224152,nowDis,1.0408144
diff,2.350586,angle,-27.714174,pieceIndex,32,radiusPerLength,1.2224152,nowDis,0.06956527
diff,6.942383,angle,-22.863653,pieceIndex,32,radiusPerLength,1.2224152,nowDis,0.15442166
diff,6.942383,angle,-17.945717,pieceIndex,32,radiusPerLength,1.2224152,nowDis,0.23929228
diff,6.944336,angle,-13.009287,pieceIndex,32,radiusPerLength,1.2224152,nowDis,0.32417688
diff,6.9453125,angle,-8.098577,pieceIndex,32,radiusPerLength,1.2224152,nowDis,0.40907517
diff,6.946289,angle,-3.2531767,pieceIndex,32,radiusPerLength,1.2224152,nowDis,0.49398687
diff,6.9472656,angle,1.4918251,pieceIndex,32,radiusPerLength,1.2224152,nowDis,0.5789117
diff,6.948242,angle,6.1056995,pieceIndex,32,radiusPerLength,1.2224152,nowDis,0.6638495
diff,6.9492188,angle,10.561909,pieceIndex,32,radiusPerLength,1.2224152,nowDis,0.74879986
diff,6.9501953,angle,14.837917,pieceIndex,32,radiusPerLength,1.2224152,nowDis,0.8337626
diff,6.951172,angle,18.91499,pieceIndex,32,radiusPerLength,1.2224152,nowDis,0.9187375
diff,6.953125,angle,22.777973,pieceIndex,32,radiusPerLength,1.2224152,nowDis,1.0037242
diff,2.3652344,angle,26.415075,pieceIndex,33,radiusPerLength,1.2224152,nowDis,0.032631677
diff,6.9541016,angle,29.817629,pieceIndex,33,radiusPerLength,1.2224152,nowDis,0.117641486
diff,6.955078,angle,32.97986,pieceIndex,33,radiusPerLength,1.2224152,nowDis,0.20266247
diff,6.9560547,angle,35.898632,pieceIndex,33,radiusPerLength,1.2224152,nowDis,0.28769442
diff,6.9570312,angle,38.57325,pieceIndex,33,radiusPerLength,1.2224152,nowDis,0.3727371
diff,6.9570312,angle,41.00518,pieceIndex,33,radiusPerLength,1.2224152,nowDis,0.45779034
diff,6.9589844,angle,43.197845,pieceIndex,33,radiusPerLength,1.2224152,nowDis,0.5428539
diff,6.959961,angle,45.1564,pieceIndex,33,radiusPerLength,1.2224152,nowDis,0.62792754
diff,6.959961,angle,46.8875,pieceIndex,33,radiusPerLength,1.2224152,nowDis,0.7130111
diff,6.9609375,angle,48.39912,pieceIndex,33,radiusPerLength,1.2224152,nowDis,0.79810435
diff,6.961914,angle,49.700325,pieceIndex,33,radiusPerLength,1.2224152,nowDis,0.8832072
diff,6.9628906,angle,50.801098,pieceIndex,33,radiusPerLength,1.2224152,nowDis,0.96831924
diff,6.9628906,angle,51.712166,pieceIndex,33,radiusPerLength,1.2224152,nowDis,1.0534405
diff,2.375,angle,52.44482,pieceIndex,34,radiusPerLength,1.2224152,nowDis,0.08247982
diff,6.9648438,angle,53.010777,pieceIndex,34,radiusPerLength,1.2224152,nowDis,0.1676188
diff,6.9658203,angle,53.422024,pieceIndex,34,radiusPerLength,1.2224152,nowDis,0.2527664
diff,6.9658203,angle,53.69068,pieceIndex,34,radiusPerLength,1.2224152,nowDis,0.33792242
diff,6.966797,angle,53.82891,pieceIndex,34,radiusPerLength,1.2224152,nowDis,0.42308667
diff,6.9677734,angle,53.84877,pieceIndex,34,radiusPerLength,1.2224152,nowDis,0.50825906
diff,6.96875,angle,53.762157,pieceIndex,34,radiusPerLength,1.2224152,nowDis,0.5934394
diff,6.96875,angle,53.580685,pieceIndex,34,radiusPerLength,1.2224152,nowDis,0.67862743
diff,6.96875,angle,53.315636,pieceIndex,34,radiusPerLength,1.2224152,nowDis,0.76382315
diff,6.970703,angle,52.977886,pieceIndex,34,radiusPerLength,1.2224152,nowDis,0.8490263
diff,6.970703,angle,52.57786,pieceIndex,34,radiusPerLength,1.2224152,nowDis,0.9342368
diff,6.970703,angle,52.12547,pieceIndex,34,radiusPerLength,1.2224152,nowDis,1.0194545
